<?xml version="1.0" encoding="UTF-8" standalone="no"?>
<!-- Created with Inkscape (http://www.inkscape.org/) -->

<svg
   xmlns:xhtml="http://www.w3.org/1999/xhtml"
   xmlns:dc="http://purl.org/dc/elements/1.1/"
   xmlns:cc="http://creativecommons.org/ns#"
   xmlns:rdf="http://www.w3.org/1999/02/22-rdf-syntax-ns#"
   xmlns:svg="http://www.w3.org/2000/svg"
   xmlns="http://www.w3.org/2000/svg"
   xmlns:sodipodi="http://sodipodi.sourceforge.net/DTD/sodipodi-0.dtd"
   xmlns:inkscape="http://www.inkscape.org/namespaces/inkscape"
   width="210mm"
   height="297mm"
   viewBox="0 0 744.09448819 1052.3622047"
   id="svg4552"
   version="1.1"
   inkscape:version="0.91 r13725"
   sodipodi:docname="auscultation_michu.svg">
  <defs
     id="defs4554" />
     <!--
        Petit script pour empêcher les événements par défaut dans la page.
          -->
     <script
        id="script4">window.addEventListener(&quot;contextmenu&quot;, function(e) { e.preventDefault(); })</script>
  <sodipodi:namedview
     id="base"
     pagecolor="#ffffff"
     bordercolor="#666666"
     borderopacity="1.0"
     inkscape:pageopacity="0.0"
     inkscape:pageshadow="2"
     inkscape:zoom="1.4"
     inkscape:cx="261.36037"
     inkscape:cy="244.92398"
     inkscape:document-units="px"
     inkscape:current-layer="layer1"
     showgrid="false"
     inkscape:window-width="1920"
     inkscape:window-height="1030"
     inkscape:window-x="0"
     inkscape:window-y="0"
     inkscape:window-maximized="1" />
  <metadata
     id="metadata4557">
    <rdf:RDF>
      <cc:Work
         rdf:about="">
        <dc:format>image/svg+xml</dc:format>
        <dc:type
           rdf:resource="http://purl.org/dc/dcmitype/StillImage" />
        <dc:title></dc:title>
      </cc:Work>
    </rdf:RDF>
  </metadata>
  <!--
Définition de la fonction $(sel) qui servira pour faire jouer l'audio désiré dans le svg
Merci à Erik Dahlström et SirCxyrtyx pour avoir posé la question et y avoir répondu ici: https://stackoverflow.com/questions/14412027/can-an-svg-contain-audio-using-javascript
  -->
  <script
     id="script7">
   function $(sel) {  return document.getElementById(sel); }
 </script>
  <!--
Charge l'audio dès le début pour être sûr quel le son soit joué dès le premier click sur un foyer.
Je défini en premier les balises pour les foyers (facile à modifier par la suite pour PC et mobiles).
 -->
 <xhtml:audio
    id="foyerAortique"
    preload="auto">
   <xhtml:source
      src="assets/sounds/heart.ogg"
      type="audio/ogg" />
 </xhtml:audio>
 <xhtml:audio
    id="foyerPulmonaire"
    preload="auto">
   <xhtml:source
      src="assets/sounds/heart.ogg"
      type="audio/ogg" />
 </xhtml:audio>
 <xhtml:audio
    id="foyerMitral"
    preload="auto">
   <xhtml:source
      src="assets/sounds/heart.ogg"
      type="audio/ogg" />
 </xhtml:audio>
 <xhtml:audio
    id="foyerTricuspidien"
    preload="auto">
   <xhtml:source
      src="assets/sounds/heart.ogg"
      type="audio/ogg" />
 </xhtml:audio>
 <!--
Le poumon (pour le moment unique, mais aussi divisible par lobe)
-->
 <xhtml:audio
    id="vesicular"
    preload="auto">
   <xhtml:source
      src="assets/sounds/vesicular3.mp3"
      type="audio/mp3" />
 </xhtml:audio>
 <xhtml:audio
    id="crakle"
    preload="auto">
   <xhtml:source
      src="assets/sounds/IPF_Lung_Sound.ogg"
      type="audio/ogg" />
 </xhtml:audio>
  <g
     inkscape:label="Calque 1"
     inkscape:groupmode="layer"
     id="layer1">
    <g
       id="g3712"
       transform="matrix(1.8923097,0,0,1.8923097,-130.92178,45.073776)">
      <path
         id="path3620"
         d="m 310.426,54.424 c 0,0.897 -0.023,1.782 -0.068,2.667 -1.385,28.829 -25.197,51.767 -54.355,51.767 -29.169,0 -52.982,-22.938 -54.366,-51.767 -0.045,-0.885 -0.068,-1.771 -0.068,-2.667 0,-30.055 24.368,-54.423 54.434,-54.423 30.055,0 54.423,24.368 54.423,54.423 z"
         style="fill:#e6e6e6"
         inkscape:connector-curvature="0" />
      <path
         id="path3622"
         d="m 223.137,54.426 c 0,-26.367 18.751,-48.351 43.644,-53.354 C 263.296,0.372 259.691,0 256,0 c -30.059,0 -54.426,24.367 -54.426,54.426 0,30.059 24.367,54.426 54.426,54.426 3.692,0 7.297,-0.372 10.782,-1.073 -24.893,-5.002 -43.645,-26.985 -43.645,-53.353 z"
         style="fill:#d3d3d3"
         inkscape:connector-curvature="0" />
      <path
         id="Poumons"
         d="m 385.393,409.768 0,102.229 -258.779,0 0,-102.229 c 0,-33.596 21.417,-62.209 51.336,-72.901 3.609,-1.283 7.332,-2.315 11.168,-3.064 l 133.771,0 c 3.836,0.749 7.559,1.782 11.168,3.064 29.919,10.691 51.336,39.306 51.336,72.901 z"
         style="fill:#72cded"
         inkscape:connector-curvature="0"
         onmousedown="$('vesicular').play(); $('vesicular').loop=true;"
         onmouseup="$('vesicular').pause(); try {$('vesicular').currentTime=0; } catch(e) {} $('vesicular').loop=false;"
         onmouseout="$('vesicular').pause(); try {$('vesicular').currentTime=0; } catch(e) {} $('vesicular').loop=false;">
        <title
           id="title5259">Poumons</title>
      </path>
      <g
         id="g3626">
        <path
           id="path3628"
           d="m 222.03,333.806 -32.915,0 c -35.616,6.935 -62.504,38.317 -62.504,75.965 l 0,102.229 32.915,0 0,-102.229 c -0.001,-37.648 26.887,-69.03 62.504,-75.965 z"
           style="fill:#5fbad3"
           inkscape:connector-curvature="0" />
        <path
           id="path3630"
           d="m 334.057,336.868 -39.748,28.874 c -22.847,16.594 -53.776,16.594 -76.612,0 l -39.748,-28.874 c 3.609,-1.283 7.332,-2.315 11.168,-3.065 l 133.771,0 c 3.837,0.749 7.56,1.782 11.169,3.065 z"
           style="fill:#5fbad3"
           inkscape:connector-curvature="0" />
      </g>
      <g
         id="g3632">
        <path
           id="path3634"
           d="m 138.057,236.745 c -14.074,-0.624 -25.276,-12.235 -25.276,-26.457 0,-14.619 11.849,-26.479 26.479,-26.479 1.317,0 2.61,0.091 3.882,0.284"
           style="fill:#e0b394"
           inkscape:connector-curvature="0" />
        <path
           id="path3636"
           d="m 373.932,236.745 c 14.074,-0.624 25.288,-12.235 25.288,-26.457 0,-14.619 -11.861,-26.479 -26.491,-26.479 -1.317,0 -2.622,0.102 -3.882,0.284"
           style="fill:#e0b394"
           inkscape:connector-curvature="0" />
      </g>
      <path
         id="path3638"
         d="m 305.398,309.866 0,63.049 c 0,27.285 -22.121,49.395 -49.395,49.395 -27.285,0 -49.395,-22.11 -49.395,-49.395 l 0,-63.049 98.79,0 z"
         style="fill:#f7cba4"
         inkscape:connector-curvature="0" />
      <path
         id="path3640"
         d="m 305.398,309.866 0,47.817 -11.089,8.058 c -22.847,16.605 -53.776,16.605 -76.612,0 l -11.089,-8.058 0,-47.817 98.79,0 z"
         style="fill:#e0b394"
         inkscape:connector-curvature="0" />
      <path
         id="path3642"
         d="m 217.693,351.204 -46.59,-33.85 c -24.62,-17.888 -37.939,-47.468 -35.012,-77.76 l 8.081,-83.624 C 149.737,98.375 198.137,54.426 256,54.426 l 0,0 c 57.863,0 106.263,43.948 111.829,101.544 l 8.081,83.624 c 2.927,30.292 -10.391,59.871 -35.012,77.76 l -46.59,33.85 c -22.844,16.596 -53.773,16.596 -76.615,0 z"
         style="fill:#f7cba4"
         inkscape:connector-curvature="0" />
      <path
         id="path3644"
         d="m 165.083,256.074 c -0.783,13.245 3.53,26.275 12.065,36.433 l 48.695,59.837 c 2.542,3.03 5.425,5.573 8.547,7.604 -5.857,-2.043 -11.486,-4.971 -16.696,-8.751 L 171.102,317.351 C 146.484,299.463 133.17,269.885 136.099,239.592 l 8.07,-83.626 C 149.685,98.932 197.196,55.281 254.32,54.452 c -35.185,0.851 -75.027,34.016 -77.104,69.337 l -12.133,132.285 z"
         style="fill:#e0b394"
         inkscape:connector-curvature="0" />
      <path
         id="path3646"
         d="m 310.358,57.091 c -1.385,28.829 -25.197,51.767 -54.355,51.767 -29.169,0 -52.982,-22.938 -54.366,-51.767 15.425,-8.535 33.017,-13.541 51.665,-13.983 0.34,-0.011 0.681,-0.011 1.021,-0.011 0.556,-0.023 1.112,-0.023 1.68,-0.023 19.647,0 38.204,5.062 54.355,14.017 z"
         style="fill:#d3d3d3"
         inkscape:connector-curvature="0" />
      <path
         id="path3648"
         d="m 369.185,169.924 c -53.674,0 -83.661,-57.113 -83.661,-57.113 0,0 -25.061,46.365 -111.457,45.264 -9.25,-0.114 -19.181,-0.783 -29.884,-2.1 l -0.011,0 C 149.654,99.27 196.643,55.8 253.302,54.46 c 0.34,-0.011 0.681,-0.011 1.021,-0.011 0.556,-0.023 1.112,-0.023 1.68,-0.023 28.931,0 55.501,10.987 75.523,29.169 20.033,18.194 33.528,43.572 36.309,72.379 l 1.35,13.95 z"
         style="fill:#e6e6e6"
         inkscape:connector-curvature="0" />
      <path
         id="path3650"
         d="m 254.324,54.449 c -35.185,0.851 -75.035,34.016 -77.112,69.337 l -3.144,34.288 c -9.25,-0.113 -19.181,-0.783 -29.884,-2.1 l -0.011,0 C 149.654,99.27 196.643,55.8 253.302,54.461 c 0.341,-0.012 0.681,-0.012 1.022,-0.012 z"
         style="fill:#d3d3d3"
         inkscape:connector-curvature="0" />
      <g
         id="g3652">
        <circle
           id="circle3654"
           r="31.780001"
           cy="232.617"
           cx="305.12"
           style="fill:#d7e9f4" />
        <circle
           id="circle3656"
           r="31.780001"
           cy="232.617"
           cx="206.875"
           style="fill:#d7e9f4" />
      </g>
      <g
         id="g3658">
        <path
           id="path3660"
           d="m 311.93,233.754 -13.615,0 c -3.76,0 -6.81,-3.049 -6.81,-6.81 0,-3.761 3.05,-6.81 6.81,-6.81 l 13.615,0 c 3.76,0 6.81,3.049 6.81,6.81 0,3.761 -3.048,6.81 -6.81,6.81 z"
           style="fill:#b6cdd8"
           inkscape:connector-curvature="0" />
        <path
           id="path3662"
           d="m 213.684,233.754 -13.615,0 c -3.76,0 -6.81,-3.049 -6.81,-6.81 0,-3.761 3.05,-6.81 6.81,-6.81 l 13.615,0 c 3.76,0 6.81,3.049 6.81,6.81 0,3.761 -3.05,6.81 -6.81,6.81 z"
           style="fill:#b6cdd8"
           inkscape:connector-curvature="0" />
      </g>
      <path
         id="path3664"
         d="m 247.001,279.177 14.775,-3.936 c 4.551,-1.212 7.257,-5.885 6.045,-10.436 l -10.069,-37.791"
         style="fill:#e0b394"
         inkscape:connector-curvature="0" />
      <path
         id="path3666"
         d="m 376.582,198.384 c -2.048,-2.372 -5.631,-2.637 -8.004,-0.589 l -27.644,23.851 c -4.702,-15.314 -18.976,-26.482 -35.811,-26.482 -18.724,0 -34.283,13.811 -37.025,31.78 l -24.197,0 c -2.743,-17.969 -18.302,-31.78 -37.025,-31.78 -16.835,0 -31.109,11.167 -35.811,26.482 l -27.644,-23.851 c -2.372,-2.048 -5.956,-1.783 -8.004,0.589 -2.048,2.373 -1.783,5.956 0.59,8.004 l 33.522,28.922 c 1.386,19.399 17.6,34.764 37.347,34.764 18.724,0 34.283,-13.811 37.025,-31.78 l 24.197,0 c 2.743,17.969 18.302,31.78 37.025,31.78 19.747,0 35.962,-15.363 37.347,-34.764 l 33.522,-28.922 c 2.373,-2.048 2.638,-5.631 0.59,-8.004 z m -169.706,60.339 c -14.394,0 -26.105,-11.711 -26.105,-26.105 0,-14.394 11.711,-26.105 26.105,-26.105 14.394,0 26.105,11.711 26.105,26.105 0,14.394 -11.711,26.105 -26.105,26.105 z m 98.248,0 c -14.394,0 -26.105,-11.711 -26.105,-26.105 0,-14.394 11.711,-26.105 26.105,-26.105 14.394,0 26.105,11.711 26.105,26.105 0,14.394 -11.711,26.105 -26.105,26.105 z"
         style="fill:#ed7c58"
         inkscape:connector-curvature="0" />
      <g
         id="g3668">
        <polygon
           id="polygon3670"
           points="178.245,403.855 186.757,511.997 169.732,511.997 "
           style="fill:#5fbad3" />
        <polygon
           id="polygon3672"
           points="333.739,403.855 342.252,511.997 325.227,511.997 "
           style="fill:#5fbad3" />
      </g>
      <path
         id="path3674"
         d="m 225.071,293.835 c 6.563,1.494 11.73,2.673 16.745,3.309 4.96,0.668 9.561,0.993 14.184,0.991 4.623,-0.018 9.22,-0.34 14.175,-1.014 5.01,-0.638 10.175,-1.808 16.754,-3.287 -1.535,6.607 -6.055,11.937 -11.629,15.672 -5.622,3.714 -12.47,5.66 -19.299,5.65 -6.829,-0.009 -13.673,-1.954 -19.29,-5.673 -5.572,-3.736 -10.089,-9.058 -11.64,-15.648 z"
         style="fill:#4d4d4d"
         inkscape:connector-curvature="0" />
      <g
         id="g3676" />
      <g
         id="g3678" />
      <g
         id="g3680" />
      <g
         id="g3682" />
      <g
         id="g3684" />
      <g
         id="g3686" />
      <g
         id="g3688" />
      <g
         id="g3690" />
      <g
         id="g3692" />
      <g
         id="g3694" />
      <g
         id="g3696" />
      <g
         id="g3698" />
      <g
         id="g3700" />
      <g
         id="g3702" />
      <g
         id="g3704" />
    </g>
    <path
       style="opacity:0;fill:#ff00ff;fill-opacity:1;stroke:#ffc170;stroke-width:2.46643829;stroke-linecap:round;stroke-miterlimit:4;stroke-dasharray:none;stroke-opacity:1;cursor:pointer"
       id="Foyer_Aortique"
       sodipodi:type="arc"
       sodipodi:cx="306.43417"
       sodipodi:cy="840.6037"
       sodipodi:rx="22.650965"
       sodipodi:ry="25.886816"
       sodipodi:start="0"
       sodipodi:end="6.2709803"
       d="m 329.08514,840.6037 a 22.650965,25.886816 0 0 1 -22.58185,25.88669 22.650965,25.886816 0 0 1 -22.71966,-25.72872 22.650965,25.886816 0 0 1 22.44321,-26.0437 22.650965,25.886816 0 0 1 22.85661,25.56979 l -22.64928,0.31594 z"
       onmouseup="$('foyerTricuspidien').pause(); try {$('foyerTricuspidien').currentTime=0; } catch(e) {} $('foyerTricuspidien').loop=false; $('vesicular').pause(); try {$('vesicular').currentTime=0; } catch(e) {} $('vesicular').loop=false;"
       onmouseout="$('foyerTricuspidien').pause(); try {$('foyerTricuspidien').currentTime=0; } catch(e) {} $('foyerTricuspidien').loop=false; $('vesicular').pause(); try {$('vesicular').currentTime=0; } catch(e) {} $('vesicular').loop=false;"
       onmousedown="$('foyerTricuspidien').play(); $('foyerTricuspidien').loop=true;"
       >
      <title
         id="title5232">Foyer_Aortique</title>
    </path>
    <path
       style="opacity:0;fill:#ff00ff;fill-opacity:1;stroke:#ffc170;stroke-width:2.46643829;stroke-linecap:round;stroke-miterlimit:4;stroke-dasharray:none;stroke-opacity:1;cursor:pointer"
       id="Foyer_Pulmonaire"
       sodipodi:type="arc"
       sodipodi:cx="401.42288"
       sodipodi:cy="840.21936"
       sodipodi:rx="22.650965"
       sodipodi:ry="25.886816"
       sodipodi:start="0"
       sodipodi:end="6.2709803"
       d="m 424.07385,840.21936 a 22.650965,25.886816 0 0 1 -22.58185,25.8867 22.650965,25.886816 0 0 1 -22.71966,-25.72873 22.650965,25.886816 0 0 1 22.4432,-26.0437 22.650965,25.886816 0 0 1 22.85662,25.56979 l -22.64928,0.31594 z"
       onmouseup="$('foyerTricuspidien').pause(); try {$('foyerTricuspidien').currentTime=0; } catch(e) {} $('foyerTricuspidien').loop=false; $('vesicular').pause(); try {$('vesicular').currentTime=0; } catch(e) {} $('vesicular').loop=false;"
       onmouseout="$('foyerTricuspidien').pause(); try {$('foyerTricuspidien').currentTime=0; } catch(e) {} $('foyerTricuspidien').loop=false; $('vesicular').pause(); try {$('vesicular').currentTime=0; } catch(e) {} $('vesicular').loop=false;"
       onmousedown="$('foyerTricuspidien').play(); $('foyerTricuspidien').loop=true;">
      <title
         id="title5234">Foyer_Pulmonaire</title>
    </path>
    <path
       style="opacity:0;fill:#ff00ff;fill-opacity:1;stroke:#ffc170;stroke-width:2.46643829;stroke-linecap:round;stroke-miterlimit:4;stroke-dasharray:none;stroke-opacity:1;cursor:pointer"
       id="Foyer_Tricuspidien"
       sodipodi:type="arc"
       sodipodi:cx="361.42288"
       sodipodi:cy="916.64795"
       sodipodi:rx="22.650965"
       sodipodi:ry="25.886816"
       sodipodi:start="0"
       sodipodi:end="6.2709803"
       d="m 384.07385,916.64795 a 22.650965,25.886816 0 0 1 -22.58185,25.88669 22.650965,25.886816 0 0 1 -22.71966,-25.72872 22.650965,25.886816 0 0 1 22.4432,-26.0437 22.650965,25.886816 0 0 1 22.85662,25.56979 l -22.64928,0.31594 z"
       onmouseup="$('foyerTricuspidien').pause(); try {$('foyerTricuspidien').currentTime=0; } catch(e) {} $('foyerTricuspidien').loop=false; $('vesicular').pause(); try {$('vesicular').currentTime=0; } catch(e) {} $('vesicular').loop=false;"
       onmouseout="$('foyerTricuspidien').pause(); try {$('foyerTricuspidien').currentTime=0; } catch(e) {} $('foyerTricuspidien').loop=false; $('vesicular').pause(); try {$('vesicular').currentTime=0; } catch(e) {} $('vesicular').loop=false;"
       onmousedown="$('foyerTricuspidien').play(); $('foyerTricuspidien').loop=true;"
       >
      <title
         id="title5236">Foyer_Tricuspidien</title>
    </path>
    <path
       style="opacity:0;fill:#ff00ff;fill-opacity:1;stroke:#ffc170;stroke-width:2.46643829;stroke-linecap:round;stroke-miterlimit:4;stroke-dasharray:none;stroke-opacity:1;cursor:pointer"
       id="Foyer_Mitral"
       sodipodi:type="arc"
       sodipodi:cx="457.13718"
       sodipodi:cy="935.93365"
       sodipodi:rx="22.650965"
       sodipodi:ry="25.886816"
       sodipodi:start="0"
       sodipodi:end="6.2709803"
       d="m 479.78814,935.93365 a 22.650965,25.886816 0 0 1 -22.58185,25.8867 22.650965,25.886816 0 0 1 -22.71966,-25.72872 22.650965,25.886816 0 0 1 22.44321,-26.04371 22.650965,25.886816 0 0 1 22.85661,25.56979 l -22.64927,0.31594 z"
       inkscape:label="#Foyer_Tricuspidien"
       onmouseup="$('foyerTricuspidien').pause(); try {$('foyerTricuspidien').currentTime=0; } catch(e) {} $('foyerTricuspidien').loop=false; $('vesicular').pause(); try {$('vesicular').currentTime=0; } catch(e) {} $('vesicular').loop=false;"
       onmouseout="$('foyerTricuspidien').pause(); try {$('foyerTricuspidien').currentTime=0; } catch(e) {} $('foyerTricuspidien').loop=false; $('vesicular').pause(); try {$('vesicular').currentTime=0; } catch(e) {} $('vesicular').loop=false;"
       onmousedown="$('foyerTricuspidien').play(); $('foyerTricuspidien').loop=true;">
      <title
         id="title5238">Foyer_Tricuspidien</title>
    </path>
    <rect
       style="opacity:0;fill:#ff00ff;fill-opacity:1;stroke:#ffc170;stroke-width:3.21445227;stroke-linecap:round;stroke-miterlimit:4;stroke-dasharray:none;stroke-opacity:1"
       id="Foyer_Base_Droite"
       width="92.778648"
       height="40.766361"
       x="187.01436"
       y="972.23376"
       rx="0"
       ry="19.680311"
       onmousedown="$('crakle').play(); $('crakle').loop=true;"
       onmouseup="$('crakle').pause(); try {$('crakle').currentTime=0; } catch(e) {} $('crakle').loop=false;"
       onmouseout="$('crakle').pause(); try {$('crakle').currentTime=0; } catch(e) {} $('crakle').loop=false;"
       >
      <title
         id="title5257">Foyer_Base_Droite</title>
    </rect>
    <rect
       style="opacity:0;fill:#ff00ff;fill-opacity:1;stroke:#ffc170;stroke-width:3.21445227;stroke-linecap:round;stroke-miterlimit:4;stroke-dasharray:none;stroke-opacity:1"
       id="rect5240-9"
       width="92.778648"
       height="40.766361"
       x="420.03925"
       y="971.97906"
       rx="0"
       ry="19.680311"
       onmousedown="$('crakle').play(); $('crakle').loop=true;"
       onmouseup="$('crakle').pause(); try {$('crakle').currentTime=0; } catch(e) {} $('crakle').loop=false;"
       onmouseout="$('crakle').pause(); try {$('crakle').currentTime=0; } catch(e) {} $('crakle').loop=false;"
       />
  </g>
</svg>
