<?xml version="1.0" encoding="UTF-8" standalone="no"?>
<!-- Created with Inkscape (http://www.inkscape.org/) -->

<svg
   xmlns:xhtml="http://www.w3.org/1999/xhtml"
   xmlns:dc="http://purl.org/dc/elements/1.1/"
   xmlns:cc="http://creativecommons.org/ns#"
   xmlns:rdf="http://www.w3.org/1999/02/22-rdf-syntax-ns#"
   xmlns:svg="http://www.w3.org/2000/svg"
   xmlns="http://www.w3.org/2000/svg"
   xmlns:sodipodi="http://sodipodi.sourceforge.net/DTD/sodipodi-0.dtd"
   xmlns:inkscape="http://www.inkscape.org/namespaces/inkscape"
   width="210mm"
   height="297mm"
   viewBox="0 0 744.09448819 1052.3622047"
   id="svg4432"
   version="1.1"
   inkscape:version="0.91 r13725"
   sodipodi:docname="auscultation_boy.svg">
  <defs
     id="defs4434" />
  <!--
     Petit script pour empêcher les événements par défaut dans la page.
       -->
  <script
     id="script4">window.addEventListener(&quot;contextmenu&quot;, function(e) { e.preventDefault(); })</script>
  <sodipodi:namedview
     id="base"
     pagecolor="#ffffff"
     bordercolor="#666666"
     borderopacity="1.0"
     inkscape:pageopacity="0.0"
     inkscape:pageshadow="2"
     inkscape:zoom="1.979899"
     inkscape:cx="368.29358"
     inkscape:cy="306.93244"
     inkscape:document-units="px"
     inkscape:current-layer="layer1"
     showgrid="false"
     inkscape:window-width="1920"
     inkscape:window-height="1030"
     inkscape:window-x="0"
     inkscape:window-y="0"
     inkscape:window-maximized="1" />
  <metadata
     id="metadata4437">
    <rdf:RDF>
      <cc:Work
         rdf:about="">
        <dc:format>image/svg+xml</dc:format>
        <dc:type
           rdf:resource="http://purl.org/dc/dcmitype/StillImage" />
        <dc:title />
      </cc:Work>
    </rdf:RDF>
  </metadata>
  <!--
Définition de la fonction $(sel) qui servira pour faire jouer l'audio désiré dans le svg
Merci à Erik Dahlström et SirCxyrtyx pour avoir posé la question et y avoir répondu ici: https://stackoverflow.com/questions/14412027/can-an-svg-contain-audio-using-javascript
  -->
  <script
     id="script7">
   function $(sel) {  return document.getElementById(sel); }
 </script>
  <!--
Charge l'audio dès le début pour être sûr quel le son soit joué dès le premier click sur un foyer.
Je défini en premier les balises pour les foyers (facile à modifier par la suite pour PC et mobiles).
 -->
  <xhtml:audio
     id="foyerAortique"
     preload="auto">
    <xhtml:source
       src="assets/sounds/heart.ogg"
       type="audio/ogg" />
  </xhtml:audio>
  <xhtml:audio
     id="foyerPulmonaire"
     preload="auto">
    <xhtml:source
       src="assets/sounds/heart.ogg"
       type="audio/ogg" />
  </xhtml:audio>
  <xhtml:audio
     id="foyerMitral"
     preload="auto">
    <xhtml:source
       src="assets/sounds/heart.ogg"
       type="audio/ogg" />
  </xhtml:audio>
  <xhtml:audio
     id="foyerTricuspidien"
     preload="auto">
    <xhtml:source
       src="assets/sounds/heart.ogg"
       type="audio/ogg" />
  </xhtml:audio>
  <!--
Le poumon (pour le moment unique, mais aussi divisible par lobe)
-->
  <xhtml:audio
     id="vesicular"
     preload="auto">
    <xhtml:source
       src="assets/sounds/vesicular3.mp3"
       type="audio/mp3" />
  </xhtml:audio>
  <g
     inkscape:label="Calque 1"
     inkscape:groupmode="layer"
     id="layer1">
    <g
       id="g4376"
       transform="matrix(2.2174574,0,0,2.2174574,-4.9205139,106.57546)">
      <g
         id="XMLID_1707_">
        <path
           d="m 191,240 -21,0 -21,0 c -38.107,0 -69,30.893 -69,69 l 0,31 90,38.45655 89.24595,0 L 260,309 c 0.41368,-38.10475 -30.893,-69 -69,-69 z"
           style="fill:#00d7df"
           id="Boy_Thorax"
           inkscape:connector-curvature="0"
           sodipodi:nodetypes="scsscccss"
           onmousedown="$('vesicular').play(); $('vesicular').loop=true;"
           onmouseup="$('vesicular').pause(); try {$('vesicular').currentTime=0; } catch(e) {} $('vesicular').loop=false;"
           onmouseout="$('vesicular').pause(); try {$('vesicular').currentTime=0; } catch(e) {} $('vesicular').loop=false;">
          <title
             id="title4495">Boy_Thorax</title>
        </path>
        <path
           d="m 170,240 -21,0 c -38.107,0 -69,30.893 -69,69 l 0,69.45655 90,0 z"
           style="fill:#00a1a7"
           id="boy_thorax_left"
           inkscape:connector-curvature="0"
           sodipodi:nodetypes="cssccc"
           onmousedown="$('vesicular').play(); $('vesicular').loop=true;"
           onmouseup="$('vesicular').pause(); try {$('vesicular').currentTime=0; } catch(e) {} $('vesicular').loop=false;"
           onmouseout="$('vesicular').pause(); try {$('vesicular').currentTime=0; } catch(e) {} $('vesicular').loop=false;">
          <title
             id="title4493">boy_thorax_left</title>
        </path>
        <path
           d="m 200,240 c 0,16.568 -13.432,30 -30,30 l 0,0 c -16.568,0 -30,-13.432 -30,-30 l 0,-30 c 0,-16.568 13.432,-30 30,-30 l 0,0 c 16.568,0 30,13.432 30,30 l 0,30 z"
           style="fill:#ffc170"
           id="XMLID_1710_"
           inkscape:connector-curvature="0" />
        <ellipse
           ry="105"
           rx="100"
           cy="135"
           cx="170"
           style="fill:#ffc170"
           id="XMLID_1711_" />
        <path
           d="m 170,205.858 c -17.419,0 -33.58,-9.436 -42.176,-24.627 -0.68,-1.202 -0.257,-2.727 0.945,-3.407 1.201,-0.68 2.727,-0.257 3.407,0.944 7.71,13.626 22.203,22.09 37.824,22.09 15.622,0 30.115,-8.464 37.824,-22.09 0.68,-1.2 2.206,-1.623 3.407,-0.944 1.202,0.68 1.625,2.205 0.945,3.407 -8.595,15.191 -24.756,24.627 -42.176,24.627 z"
           style="fill:#e8667d"
           id="XMLID_1712_"
           inkscape:connector-curvature="0" />
        <ellipse
           ry="10"
           rx="15"
           cy="160"
           cx="135"
           style="fill:#ffad41"
           id="XMLID_1713_" />
        <circle
           r="7.5"
           cy="137.5"
           cx="135"
           style="fill:#50412e"
           id="XMLID_1714_" />
        <ellipse
           ry="10"
           rx="15"
           cy="160"
           cx="205"
           style="fill:#ffad41"
           id="XMLID_1715_" />
        <circle
           r="7.5"
           cy="137.5"
           cx="205"
           style="fill:#50412e"
           id="XMLID_1716_" />
        <path
           d="m 170,228 c -22.528,0 -44.084,-4.358 -63.959,-12.295 C 123.376,230.872 145.67,240 170,240 c 24.33,0 46.624,-9.128 63.959,-24.295 C 214.084,223.642 192.528,228 170,228 Z"
           style="fill:#ffad41"
           id="XMLID_1717_"
           inkscape:connector-curvature="0" />
        <path
           d="M 170,0 C 120,0 40,40 60,150 l 10,-20 c 20,-10 23,-50 23,-50 0,0 38.135,0 77,0 38.865,0 77,0 77,0 0,0 3,40 23,50 l 10,20 C 300,40 220,0 170,0 Z"
           style="fill:#50412e"
           id="XMLID_1718_"
           inkscape:connector-curvature="0" />
        <path
           d="M 170,0 C 120,0 40,40 60,150 l 10,-20 c 20,-10 23,-50 23,-50 0,0 38.135,0 77,0 0,-51 0,-60 0,-80 z"
           id="XMLID_1719_"
           inkscape:connector-curvature="0" />
        <circle
           r="20"
           cy="150"
           cx="70"
           style="fill:#ffc170"
           id="XMLID_1720_" />
        <circle
           r="20"
           cy="150"
           cx="270"
           style="fill:#ffc170"
           id="XMLID_1721_" />
      </g>
      <g
         id="g4340" />
      <g
         id="g4342" />
      <g
         id="g4344" />
      <g
         id="g4346" />
      <g
         id="g4348" />
      <g
         id="g4350" />
      <g
         id="g4352" />
      <g
         id="g4354" />
      <g
         id="g4356" />
      <g
         id="g4358" />
      <g
         id="g4360" />
      <g
         id="g4362" />
      <g
         id="g4364" />
      <g
         id="g4366" />
      <g
         id="g4368" />
    </g>
    <path
       style="opacity:1;fill:none;fill-opacity:1;stroke:#ffc170;stroke-width:14.69397926;stroke-linecap:round;stroke-miterlimit:4;stroke-dasharray:none;stroke-opacity:1"
       id="path4416"
       sodipodi:type="arc"
       sodipodi:cx="294.36749"
       sodipodi:cy="408.77859"
       sodipodi:rx="9.9020205"
       sodipodi:ry="9.3827848"
       sodipodi:start="0"
       sodipodi:end="5.3003649"
       d="m 304.26951,408.77859 a 9.9020205,9.3827848 0 0 1 -7.49345,9.10099 9.9020205,9.3827848 0 0 1 -11.13886,-4.67353 9.9020205,9.3827848 0 0 1 2.0746,-11.37457 9.9020205,9.3827848 0 0 1 12.14813,-0.85997 l -5.49244,7.80708 z" />
    <path
       style="opacity:1;fill:none;fill-opacity:1;stroke:#ffc170;stroke-width:14.69397926;stroke-linecap:round;stroke-miterlimit:4;stroke-dasharray:none;stroke-opacity:1"
       id="path4416-7"
       sodipodi:type="arc"
       sodipodi:cx="449.49094"
       sodipodi:cy="407.89468"
       sodipodi:rx="9.9020205"
       sodipodi:ry="9.3827848"
       sodipodi:start="0"
       sodipodi:end="5.3003649"
       d="m 459.39296,407.89468 a 9.9020205,9.3827848 0 0 1 -7.49345,9.10099 9.9020205,9.3827848 0 0 1 -11.13887,-4.67353 9.9020205,9.3827848 0 0 1 2.07461,-11.37457 9.9020205,9.3827848 0 0 1 12.14812,-0.85997 l -5.49243,7.80708 z" />
    <path
       style="opacity:0;fill:none;fill-opacity:1;stroke:#ffc170;stroke-width:14.69397926;stroke-linecap:round;stroke-miterlimit:4;stroke-dasharray:none;stroke-opacity:1;cursor:pointer"
       id="foyer_aortique"
       sodipodi:type="arc"
       sodipodi:cx="332.26889"
       sodipodi:cy="760.84113"
       sodipodi:rx="9.9020205"
       sodipodi:ry="9.3827848"
       sodipodi:start="0"
       sodipodi:end="5.3003649"
       d="m 342.17091,760.84113 a 9.9020205,9.3827848 0 0 1 -7.49345,9.10098 9.9020205,9.3827848 0 0 1 -11.13887,-4.67353 9.9020205,9.3827848 0 0 1 2.07461,-11.37457 9.9020205,9.3827848 0 0 1 12.14812,-0.85997 l -5.49243,7.80709 z"
       onmouseup="$('foyerTricuspidien').pause(); try {$('foyerTricuspidien').currentTime=0; } catch(e) {} $('foyerTricuspidien').loop=false; $('vesicular').pause(); try {$('vesicular').currentTime=0; } catch(e) {} $('vesicular').loop=false;"
       onmouseout="$('foyerTricuspidien').pause(); try {$('foyerTricuspidien').currentTime=0; } catch(e) {} $('foyerTricuspidien').loop=false; $('vesicular').pause(); try {$('vesicular').currentTime=0; } catch(e) {} $('vesicular').loop=false;"
       onmousedown="$('foyerTricuspidien').play(); $('foyerTricuspidien').loop=true;">
      <title
         id="title5088">foyer_aortique</title>
    </path>
    <path
       style="opacity:0;fill:none;fill-opacity:1;stroke:#ffc170;stroke-width:14.69397926;stroke-linecap:round;stroke-miterlimit:4;stroke-dasharray:none;stroke-opacity:1;cursor:pointer"
       id="foyer_pulmonaire"
       sodipodi:type="arc"
       sodipodi:cx="416.754"
       sodipodi:cy="761.60199"
       sodipodi:rx="9.9020205"
       sodipodi:ry="9.3827848"
       sodipodi:start="0"
       sodipodi:end="5.3003649"
       d="m 426.65602,761.60199 a 9.9020205,9.3827848 0 0 1 -7.49345,9.10098 9.9020205,9.3827848 0 0 1 -11.13887,-4.67353 9.9020205,9.3827848 0 0 1 2.07461,-11.37456 9.9020205,9.3827848 0 0 1 12.14812,-0.85998 l -5.49243,7.80709 z"
       onmouseup="$('foyerTricuspidien').pause(); try {$('foyerTricuspidien').currentTime=0; } catch(e) {} $('foyerTricuspidien').loop=false; $('vesicular').pause(); try {$('vesicular').currentTime=0; } catch(e) {} $('vesicular').loop=false;"
       onmouseout="$('foyerTricuspidien').pause(); try {$('foyerTricuspidien').currentTime=0; } catch(e) {} $('foyerTricuspidien').loop=false; $('vesicular').pause(); try {$('vesicular').currentTime=0; } catch(e) {} $('vesicular').loop=false;"
       onmousedown="$('foyerTricuspidien').play(); $('foyerTricuspidien').loop=true;">
      <title
         id="title5088-6">foyer_pulmonaire</title>
    </path>
    <path
       style="opacity:0;fill:none;fill-opacity:1;stroke:#ffc170;stroke-width:14.69397926;stroke-linecap:round;stroke-miterlimit:4;stroke-dasharray:none;stroke-opacity:1;cursor:pointer"
       id="foyer_tricuspidien"
       sodipodi:type="arc"
       sodipodi:cx="373.72952"
       sodipodi:cy="846.80597"
       sodipodi:rx="9.9020205"
       sodipodi:ry="9.3827848"
       sodipodi:start="0"
       sodipodi:end="5.3003649"
       d="m 383.63154,846.80597 a 9.9020205,9.3827848 0 0 1 -7.49345,9.10098 9.9020205,9.3827848 0 0 1 -11.13886,-4.67353 9.9020205,9.3827848 0 0 1 2.0746,-11.37456 9.9020205,9.3827848 0 0 1 12.14813,-0.85998 l -5.49244,7.80709 z"
       onmouseup="$('foyerTricuspidien').pause(); try {$('foyerTricuspidien').currentTime=0; } catch(e) {} $('foyerTricuspidien').loop=false; $('vesicular').pause(); try {$('vesicular').currentTime=0; } catch(e) {} $('vesicular').loop=false;"
       onmouseout="$('foyerTricuspidien').pause(); try {$('foyerTricuspidien').currentTime=0; } catch(e) {} $('foyerTricuspidien').loop=false; $('vesicular').pause(); try {$('vesicular').currentTime=0; } catch(e) {} $('vesicular').loop=false;"
       onmousedown="$('foyerTricuspidien').play(); $('foyerTricuspidien').loop=true;">
      <title
         id="title5088-7">foyer_tricuspidien</title>
    </path>
    <path
       style="opacity:0;fill:none;fill-opacity:1;stroke:#ffc170;stroke-width:14.69397926;stroke-linecap:round;stroke-miterlimit:4;stroke-dasharray:none;stroke-opacity:1;cursor:pointer"
       id="foyer_mitral"
       sodipodi:type="arc"
       sodipodi:cx="481.31076"
       sodipodi:cy="862.46338"
       sodipodi:rx="9.9020205"
       sodipodi:ry="9.3827848"
       sodipodi:start="0"
       sodipodi:end="5.3003649"
       d="m 491.21278,862.46338 a 9.9020205,9.3827848 0 0 1 -7.49345,9.10098 9.9020205,9.3827848 0 0 1 -11.13887,-4.67353 9.9020205,9.3827848 0 0 1 2.07461,-11.37456 9.9020205,9.3827848 0 0 1 12.14812,-0.85998 l -5.49243,7.80709 z"
       onmouseup="$('foyerTricuspidien').pause(); try {$('foyerTricuspidien').currentTime=0; } catch(e) {} $('foyerTricuspidien').loop=false; $('vesicular').pause(); try {$('vesicular').currentTime=0; } catch(e) {} $('vesicular').loop=false;"
       onmouseout="$('foyerTricuspidien').pause(); try {$('foyerTricuspidien').currentTime=0; } catch(e) {} $('foyerTricuspidien').loop=false; $('vesicular').pause(); try {$('vesicular').currentTime=0; } catch(e) {} $('vesicular').loop=false;"
       onmousedown="$('foyerTricuspidien').play(); $('foyerTricuspidien').loop=true;">
      <title
         id="title5088-1">foyer_mitral</title>
    </path>
  </g>
</svg>
