{
  "aspectWidth": 4,
  "aspectHeight": 3,
  "frames": [
    {
      "frameId": "frame4573",
      "title": "Arrivée aux urgences",
      "timeoutMs": 0,
      "timeoutEnable": false,
      "transitionDurationMs": 1000,
      "showInFrameList": true,
      "showFrameNumber": true,
      "layerProperties": {
        "layer1": {
          "link": false,
          "referenceElementId": "XMLID_1711_",
          "outlineElementId": "XMLID_1711_",
          "outlineElementAuto": true,
          "transitionTimingFunction": "linear",
          "transitionRelativeZoom": 0,
          "transitionPathId": ""
        },
        "__sozi_auto__": {
          "link": false,
          "referenceElementId": "",
          "outlineElementId": "XMLID_1711_",
          "outlineElementAuto": true,
          "transitionTimingFunction": "linear",
          "transitionRelativeZoom": 0,
          "transitionPathId": ""
        }
      },
      "cameraStates": {
        "layer1": {
          "cx": 44.80676610388941,
          "cy": 44.977597769201125,
          "width": 175.58056169957388,
          "height": 131.58978916046496,
          "opacity": 1,
          "angle": 0,
          "clipped": true,
          "clipXOffset": -3.3561676783620755,
          "clipYOffset": 6.233200539179918,
          "clipWidthFactor": 0.5413943355119826,
          "clipHeightFactor": 0.5523255813953488
        },
        "__sozi_auto__": {
          "cx": 47.810594203388426,
          "cy": 43.96444316995951,
          "width": 167.61411153171656,
          "height": 125.61929055971787,
          "opacity": 1,
          "angle": 0,
          "clipped": true,
          "clipXOffset": -3.203891467910075,
          "clipYOffset": 5.950387447565583,
          "clipWidthFactor": 0.5413943355119826,
          "clipHeightFactor": 0.5523255813953488
        }
      },
      "cameraOffsets": {
        "layer1": {
          "deltaX": -21.20714991173559,
          "deltaY": 7.367585714757766,
          "widthFactor": 4.644066186227342,
          "heightFactor": 3.3147811351015783,
          "deltaAngle": 0
        }
      }
    },
    {
      "frameId": "frame7438",
      "title": "Constantes",
      "timeoutMs": 0,
      "timeoutEnable": false,
      "transitionDurationMs": 1000,
      "showInFrameList": true,
      "showFrameNumber": true,
      "layerProperties": {
        "layer1": {
          "link": false,
          "referenceElementId": "XMLID_1711_",
          "outlineElementId": "XMLID_1711_",
          "outlineElementAuto": true,
          "transitionTimingFunction": "linear",
          "transitionRelativeZoom": 0,
          "transitionPathId": ""
        },
        "__sozi_auto__": {
          "link": false,
          "referenceElementId": "",
          "outlineElementId": "XMLID_1711_",
          "outlineElementAuto": true,
          "transitionTimingFunction": "linear",
          "transitionRelativeZoom": 0,
          "transitionPathId": ""
        }
      },
      "cameraStates": {
        "layer1": {
          "cx": 108.67029722379863,
          "cy": 25.688378246162117,
          "width": 103.0585554450418,
          "height": 77.2377844729725,
          "opacity": 1,
          "angle": 0,
          "clipped": true,
          "clipXOffset": -28.62737651251161,
          "clipYOffset": -43.54896358582493,
          "clipWidthFactor": 0.24509803921568626,
          "clipHeightFactor": 0.20494186046511628
        },
        "__sozi_auto__": {
          "cx": 116.41794333259207,
          "cy": 30.158345767212257,
          "width": 27.56173252490121,
          "height": 20.65628755678871,
          "opacity": 1,
          "angle": 0,
          "clipped": true,
          "clipXOffset": -55.55583875919434,
          "clipYOffset": -54.889966513364726,
          "clipWidthFactor": 0.40087145969498855,
          "clipHeightFactor": 0.30959302325581356
        }
      },
      "cameraOffsets": {
        "layer1": {
          "deltaX": 42.65638120817363,
          "deltaY": -11.921633808281243,
          "widthFactor": 2.72587550643948,
          "heightFactor": 1.9456399506487834,
          "deltaAngle": 0
        }
      }
    },
    {
      "frameId": "frame5770",
      "title": "Neuro",
      "timeoutMs": 0,
      "timeoutEnable": false,
      "transitionDurationMs": 1000,
      "showInFrameList": true,
      "showFrameNumber": true,
      "layerProperties": {
        "layer1": {
          "link": false,
          "referenceElementId": "XMLID_1711_",
          "outlineElementId": "XMLID_1711_",
          "outlineElementAuto": true,
          "transitionTimingFunction": "linear",
          "transitionRelativeZoom": 0,
          "transitionPathId": ""
        },
        "__sozi_auto__": {
          "link": false,
          "referenceElementId": "",
          "outlineElementId": "XMLID_1711_",
          "outlineElementAuto": true,
          "transitionTimingFunction": "linear",
          "transitionRelativeZoom": 0,
          "transitionPathId": ""
        }
      },
      "cameraStates": {
        "layer1": {
          "cx": 102.23285192747284,
          "cy": 48.37219991201231,
          "width": 125.07623071853637,
          "height": 93.73904873023207,
          "opacity": 1,
          "angle": 0,
          "clipped": true,
          "clipXOffset": -16.279480954119595,
          "clipYOffset": -51.676655069230485,
          "clipWidthFactor": 0.7657952069716776,
          "clipHeightFactor": 0.22674418604651161
        },
        "__sozi_auto__": {
          "cx": 102.23285192747284,
          "cy": 48.37219991201231,
          "width": 125.07623071853635,
          "height": 93.73904873023204,
          "opacity": 1,
          "angle": 0,
          "clipped": true,
          "clipXOffset": -16.279480954119595,
          "clipYOffset": -51.676655069230485,
          "clipWidthFactor": 0.7657952069716776,
          "clipHeightFactor": 0.22674418604651161
        }
      },
      "cameraOffsets": {
        "layer1": {
          "deltaX": 36.21893591184784,
          "deltaY": 10.762187857568954,
          "widthFactor": 3.3082380427430538,
          "heightFactor": 2.3613111042714197,
          "deltaAngle": 0
        }
      }
    },
    {
      "frameId": "frame7865",
      "title": "Auscultation",
      "timeoutMs": 0,
      "timeoutEnable": false,
      "transitionDurationMs": 1000,
      "showInFrameList": true,
      "showFrameNumber": true,
      "layerProperties": {
        "layer1": {
          "link": false,
          "referenceElementId": "XMLID_1711_",
          "outlineElementId": "XMLID_1711_",
          "outlineElementAuto": true,
          "transitionTimingFunction": "linear",
          "transitionRelativeZoom": 0,
          "transitionPathId": ""
        },
        "__sozi_auto__": {
          "link": false,
          "referenceElementId": "",
          "outlineElementId": "XMLID_1711_",
          "outlineElementAuto": true,
          "transitionTimingFunction": "linear",
          "transitionRelativeZoom": 0,
          "transitionPathId": ""
        }
      },
      "cameraStates": {
        "layer1": {
          "cx": 93.6024313395092,
          "cy": 46.25382768810643,
          "width": 113.44782831613276,
          "height": 85.02408048093612,
          "opacity": 1,
          "angle": 0,
          "clipped": true,
          "clipXOffset": -65.05299522431409,
          "clipYOffset": -0.8123319791172238,
          "clipWidthFactor": 0.4302832244008715,
          "clipHeightFactor": 0.9127906976744187
        },
        "__sozi_auto__": {
          "cx": 93.6024313395092,
          "cy": 46.25382768810643,
          "width": 113.44782831613274,
          "height": 85.02408048093609,
          "opacity": 1,
          "angle": 0,
          "clipped": true,
          "clipXOffset": -65.05299522431409,
          "clipYOffset": -0.8123319791172238,
          "clipWidthFactor": 0.4302832244008715,
          "clipHeightFactor": 0.9127906976744187
        }
      },
      "cameraOffsets": {
        "layer1": {
          "deltaX": 27.588515323884195,
          "deltaY": 8.643815633663074,
          "widthFactor": 3.0006694265243117,
          "heightFactor": 2.1417787793845076,
          "deltaAngle": 0
        }
      }
    },
    {
      "frameId": "frame9971",
      "title": "Clinique",
      "timeoutMs": 0,
      "timeoutEnable": false,
      "transitionDurationMs": 1000,
      "showInFrameList": true,
      "showFrameNumber": true,
      "layerProperties": {
        "layer1": {
          "link": false,
          "referenceElementId": "XMLID_1711_",
          "outlineElementId": "XMLID_1711_",
          "outlineElementAuto": true,
          "transitionTimingFunction": "linear",
          "transitionRelativeZoom": 0,
          "transitionPathId": ""
        },
        "__sozi_auto__": {
          "link": false,
          "referenceElementId": "",
          "outlineElementId": "XMLID_1711_",
          "outlineElementAuto": true,
          "transitionTimingFunction": "linear",
          "transitionRelativeZoom": 0,
          "transitionPathId": ""
        }
      },
      "cameraStates": {
        "layer1": {
          "cx": 93.6024313395092,
          "cy": 46.25382768810643,
          "width": 113.44782831613276,
          "height": 85.02408048093612,
          "opacity": 1,
          "angle": 0,
          "clipped": true,
          "clipXOffset": 48.92773638278712,
          "clipYOffset": 42.86928427610224,
          "clipWidthFactor": 0.459694989106754,
          "clipHeightFactor": 0.3459302325581396
        },
        "__sozi_auto__": {
          "cx": 93.6024313395092,
          "cy": 46.25382768810643,
          "width": 113.44782831613274,
          "height": 85.02408048093609,
          "opacity": 1,
          "angle": 0,
          "clipped": true,
          "clipXOffset": 48.92773638278711,
          "clipYOffset": 42.86928427610223,
          "clipWidthFactor": 0.4596949891067538,
          "clipHeightFactor": 0.34593023255813954
        }
      },
      "cameraOffsets": {
        "layer1": {
          "deltaX": 27.588515323884195,
          "deltaY": 8.643815633663074,
          "widthFactor": 3.0006694265243117,
          "heightFactor": 2.1417787793845076,
          "deltaAngle": 0
        }
      }
    },
    {
      "frameId": "frame9701",
      "title": "ECG à l'arrivée",
      "timeoutMs": 0,
      "timeoutEnable": false,
      "transitionDurationMs": 1000,
      "showInFrameList": true,
      "showFrameNumber": true,
      "layerProperties": {
        "layer1": {
          "link": false,
          "referenceElementId": "image4542",
          "outlineElementId": "image4542",
          "outlineElementAuto": true,
          "transitionTimingFunction": "linear",
          "transitionRelativeZoom": 0,
          "transitionPathId": ""
        },
        "__sozi_auto__": {
          "link": false,
          "referenceElementId": "",
          "outlineElementId": "image4542",
          "outlineElementAuto": true,
          "transitionTimingFunction": "linear",
          "transitionRelativeZoom": 0,
          "transitionPathId": ""
        }
      },
      "cameraStates": {
        "layer1": {
          "cx": 67.23523320601224,
          "cy": 102.10446142840411,
          "width": 60.163805540387,
          "height": 45.090085198024255,
          "opacity": 1,
          "angle": 0,
          "clipped": true,
          "clipXOffset": -1.737012758383875,
          "clipYOffset": 2.8722305579893255,
          "clipWidthFactor": 0.8300653594771243,
          "clipHeightFactor": 0.8328488372093023
        },
        "__sozi_auto__": {
          "cx": 67.23523320601224,
          "cy": 102.10446142840411,
          "width": 60.163805540386946,
          "height": 45.090085198024205,
          "opacity": 1,
          "angle": 0,
          "clipped": true,
          "clipXOffset": -1.737012758383875,
          "clipYOffset": 2.8722305579893255,
          "clipWidthFactor": 0.8300653594771243,
          "clipHeightFactor": 0.8328488372093023
        }
      },
      "cameraOffsets": {
        "layer1": {
          "deltaX": 1.2213171903872393,
          "deltaY": -2.301521542787299,
          "widthFactor": 1.2444850565169376,
          "heightFactor": 1.2435813564618177,
          "deltaAngle": 0
        }
      }
    },
    {
      "frameId": "frame3190",
      "title": "ECG au SAU",
      "timeoutMs": 0,
      "timeoutEnable": false,
      "transitionDurationMs": 1000,
      "showInFrameList": true,
      "showFrameNumber": true,
      "layerProperties": {
        "layer1": {
          "link": false,
          "referenceElementId": "text4545",
          "outlineElementId": "text4545",
          "outlineElementAuto": true,
          "transitionTimingFunction": "linear",
          "transitionRelativeZoom": 0,
          "transitionPathId": ""
        },
        "__sozi_auto__": {
          "link": false,
          "referenceElementId": "",
          "outlineElementId": "text4545",
          "outlineElementAuto": true,
          "transitionTimingFunction": "linear",
          "transitionRelativeZoom": 0,
          "transitionPathId": ""
        }
      },
      "cameraStates": {
        "layer1": {
          "cx": 1.2762007569765537,
          "cy": 88.27585253218412,
          "width": 55.19297045284518,
          "height": 60.437101551871955,
          "opacity": 1,
          "angle": 0,
          "clipped": true,
          "clipXOffset": 21.773930101726837,
          "clipYOffset": 54.743751405681124,
          "clipWidthFactor": 0.7241738168954783,
          "clipHeightFactor": 0.10029069767441862
        },
        "__sozi_auto__": {
          "cx": 46.456034505082,
          "cy": 93.92076787675103,
          "width": 49.49691171097393,
          "height": 37.09572468099136,
          "opacity": 1,
          "angle": 0,
          "clipped": true,
          "clipXOffset": 14.06389928882941,
          "clipYOffset": 38.43977267667945,
          "clipWidthFactor": 0.5718954248366014,
          "clipHeightFactor": 0.10029069767441862
        }
      },
      "cameraOffsets": {
        "layer1": {
          "deltaX": -14.661299243023446,
          "deltaY": -5.481959967815882,
          "widthFactor": 1.7064493280106723,
          "heightFactor": 17.66198401515893,
          "deltaAngle": 0
        }
      }
    },
    {
      "frameId": "frame3264",
      "title": "Réponse ECG",
      "timeoutMs": 0,
      "timeoutEnable": false,
      "transitionDurationMs": 1000,
      "showInFrameList": true,
      "showFrameNumber": true,
      "layerProperties": {
        "layer1": {
          "link": false,
          "referenceElementId": "text4551",
          "outlineElementId": "text4551",
          "outlineElementAuto": true,
          "transitionTimingFunction": "linear",
          "transitionRelativeZoom": 0,
          "transitionPathId": ""
        },
        "__sozi_auto__": {
          "link": false,
          "referenceElementId": "",
          "outlineElementId": "text4551",
          "outlineElementAuto": true,
          "transitionTimingFunction": "linear",
          "transitionRelativeZoom": 0,
          "transitionPathId": ""
        }
      },
      "cameraStates": {
        "layer1": {
          "cx": 7.113453877594177,
          "cy": 113.64395586222118,
          "width": 47.70315781932128,
          "height": 41.159273481015084,
          "opacity": 1,
          "angle": 0,
          "clipped": true,
          "clipXOffset": 13.035634497158014,
          "clipYOffset": 45.2752008291166,
          "clipWidthFactor": 0.7411730403741703,
          "clipHeightFactor": 0.13808139534883723
        },
        "__sozi_auto__": {
          "cx": 181.20715819676312,
          "cy": 106.95353173559397,
          "width": 286.67701192839536,
          "height": 214.85161678293684,
          "opacity": 1,
          "angle": 0,
          "clipped": true,
          "clipXOffset": 77.85390933080787,
          "clipYOffset": 211.45922283373258,
          "clipWidthFactor": 0.6437908496732027,
          "clipHeightFactor": 0.1380813953488372
        }
      },
      "cameraOffsets": {
        "layer1": {
          "deltaX": -8.691233622405823,
          "deltaY": -5.887294137778824,
          "widthFactor": 1.4899961446737735,
          "heightFactor": 7.934317779472788,
          "deltaAngle": 0
        }
      }
    },
    {
      "frameId": "frame5924",
      "title": "Nouvelles informations",
      "timeoutMs": 0,
      "timeoutEnable": false,
      "transitionDurationMs": 1000,
      "showInFrameList": true,
      "showFrameNumber": true,
      "layerProperties": {
        "layer1": {
          "link": false,
          "referenceElementId": "image4542",
          "outlineElementId": "image4542",
          "outlineElementAuto": true,
          "transitionTimingFunction": "linear",
          "transitionRelativeZoom": 0,
          "transitionPathId": ""
        },
        "__sozi_auto__": {
          "link": false,
          "referenceElementId": "",
          "outlineElementId": "image4542",
          "outlineElementAuto": true,
          "transitionTimingFunction": "linear",
          "transitionRelativeZoom": 0,
          "transitionPathId": ""
        }
      },
      "cameraStates": {
        "layer1": {
          "cx": 64.95084225661792,
          "cy": 134.6800361869299,
          "width": 143.5990218987568,
          "height": 107.62105344917723,
          "opacity": 1,
          "angle": 0,
          "clipped": true,
          "clipXOffset": 0.5653504799163653,
          "clipYOffset": 45.79619295709668,
          "clipWidthFactor": 0.41503267973856206,
          "clipHeightFactor": 0.27325581395348836
        },
        "__sozi_auto__": {
          "cx": 92.8944842546723,
          "cy": 134.51684438584405,
          "width": 131.33004225446345,
          "height": 98.42600116674386,
          "opacity": 1,
          "angle": 0,
          "clipped": true,
          "clipXOffset": -10.214558842013824,
          "clipYOffset": 41.13702100045961,
          "clipWidthFactor": 0.49019607843137264,
          "clipHeightFactor": 0.28343023255813954
        }
      },
      "cameraOffsets": {
        "layer1": {
          "deltaX": -1.0630737590070822,
          "deltaY": 30.27405321573849,
          "widthFactor": 2.9703379844130415,
          "heightFactor": 2.9681810323579065,
          "deltaAngle": 0
        }
      }
    },
    {
      "frameId": "frame3736",
      "title": "Etiologies",
      "timeoutMs": 0,
      "timeoutEnable": false,
      "transitionDurationMs": 1000,
      "showInFrameList": true,
      "showFrameNumber": true,
      "layerProperties": {
        "layer1": {
          "link": false,
          "referenceElementId": "text4587",
          "outlineElementId": "text4587",
          "outlineElementAuto": true,
          "transitionTimingFunction": "linear",
          "transitionRelativeZoom": 0,
          "transitionPathId": ""
        },
        "__sozi_auto__": {
          "link": false,
          "referenceElementId": "",
          "outlineElementId": "text4587",
          "outlineElementAuto": true,
          "transitionTimingFunction": "linear",
          "transitionRelativeZoom": 0,
          "transitionPathId": ""
        }
      },
      "cameraStates": {
        "layer1": {
          "cx": 41.08742041165992,
          "cy": 158.77568545536258,
          "width": 75.46806620650423,
          "height": 114.55019676303057,
          "opacity": 1,
          "angle": 0,
          "clipped": true,
          "clipXOffset": 25.444193110498045,
          "clipYOffset": 107.84216107744136,
          "clipWidthFactor": 0.9591763482331107,
          "clipHeightFactor": 0.1322674418604651
        },
        "__sozi_auto__": {
          "cx": 89.60408014590043,
          "cy": 155.11763532772062,
          "width": 131.33004225446345,
          "height": 98.42600116674386,
          "opacity": 1,
          "angle": 0,
          "clipped": true,
          "clipXOffset": 42.254013594914326,
          "clipYOffset": 93.55878132882796,
          "clipWidthFactor": 0.5010893246187365,
          "clipHeightFactor": 0.13226744186046513
        }
      },
      "cameraOffsets": {
        "layer1": {
          "deltaX": -21.32664208834008,
          "deltaY": -42.67743954463742,
          "widthFactor": 1.3686472760601505,
          "heightFactor": 3.555389230278349,
          "deltaAngle": 0
        }
      }
    },
    {
      "frameId": "frame4029",
      "title": "Biologie",
      "timeoutMs": 0,
      "timeoutEnable": false,
      "transitionDurationMs": 1000,
      "showInFrameList": true,
      "showFrameNumber": true,
      "layerProperties": {
        "layer1": {
          "link": false,
          "referenceElementId": "text4587",
          "outlineElementId": "text4587",
          "outlineElementAuto": true,
          "transitionTimingFunction": "linear",
          "transitionRelativeZoom": 0,
          "transitionPathId": ""
        },
        "__sozi_auto__": {
          "link": false,
          "referenceElementId": "",
          "outlineElementId": "text4587",
          "outlineElementAuto": true,
          "transitionTimingFunction": "linear",
          "transitionRelativeZoom": 0,
          "transitionPathId": ""
        }
      },
      "cameraStates": {
        "layer1": {
          "cx": 38.823534167540245,
          "cy": 188.12133926474525,
          "width": 52.831448548155805,
          "height": 93.9740663249088,
          "opacity": 1,
          "angle": 0,
          "clipped": true,
          "clipXOffset": 14.549837434385156,
          "clipYOffset": 31.756753447727803,
          "clipWidthFactor": 1.4504071234107085,
          "clipHeightFactor": 0.42151162790697677
        },
        "__sozi_auto__": {
          "cx": 72.12772549452795,
          "cy": 186.43424450038617,
          "width": 108.04555077726971,
          "height": 80.97531474374898,
          "opacity": 1,
          "angle": 0,
          "clipped": true,
          "clipXOffset": 27.95584180950335,
          "clipYOffset": 28.480972771939296,
          "clipWidthFactor": 0.6230936819172113,
          "clipHeightFactor": 0.4215116279069767
        }
      },
      "cameraOffsets": {
        "layer1": {
          "deltaX": -23.590528332459755,
          "deltaY": -13.331785735254755,
          "widthFactor": 0.9581220479121484,
          "heightFactor": 2.9167508461659377,
          "deltaAngle": 0
        }
      }
    },
    {
      "frameId": "frame7239",
      "title": "Natriurèse",
      "timeoutMs": 0,
      "timeoutEnable": false,
      "transitionDurationMs": 1000,
      "showInFrameList": true,
      "showFrameNumber": true,
      "layerProperties": {
        "layer1": {
          "link": false,
          "referenceElementId": "text4615",
          "outlineElementId": "text4615",
          "outlineElementAuto": true,
          "transitionTimingFunction": "linear",
          "transitionRelativeZoom": 0,
          "transitionPathId": ""
        },
        "__sozi_auto__": {
          "link": false,
          "referenceElementId": "",
          "outlineElementId": "text4615",
          "outlineElementAuto": true,
          "transitionTimingFunction": "linear",
          "transitionRelativeZoom": 0,
          "transitionPathId": ""
        }
      },
      "cameraStates": {
        "layer1": {
          "cx": 96.83167829492184,
          "cy": 238.0774926097794,
          "width": 205.40719684564476,
          "height": 85.63987629439048,
          "opacity": 1,
          "angle": 0,
          "clipped": true,
          "clipXOffset": -59.64233065036191,
          "clipYOffset": -33.73692096445685,
          "clipWidthFactor": 0.45206971677559915,
          "clipHeightFactor": 0.17244113747838674
        },
        "__sozi_auto__": {
          "cx": 69.88587247403963,
          "cy": 222.71377338424256,
          "width": 26.249269071334812,
          "height": 19.67265481598949,
          "opacity": 1,
          "angle": 0,
          "clipped": true,
          "clipXOffset": -54.81461487502074,
          "clipYOffset": 169.98413155669033,
          "clipWidthFactor": 0.4564270152505431,
          "clipHeightFactor": 0.10319767441860442
        }
      },
      "cameraOffsets": {
        "layer1": {
          "deltaX": 36.28480329492184,
          "deltaY": -31.570944890220602,
          "widthFactor": 2.7513730845795865,
          "heightFactor": 2.9169516140718414,
          "deltaAngle": 0
        }
      }
    },
    {
      "frameId": "frame4561",
      "title": "Etiologie et prise en charge",
      "timeoutMs": 0,
      "timeoutEnable": false,
      "transitionDurationMs": 1000,
      "showInFrameList": true,
      "showFrameNumber": true,
      "layerProperties": {
        "layer1": {
          "link": false,
          "referenceElementId": "text4615",
          "outlineElementId": "text4615",
          "outlineElementAuto": true,
          "transitionTimingFunction": "linear",
          "transitionRelativeZoom": 0,
          "transitionPathId": ""
        },
        "__sozi_auto__": {
          "link": false,
          "referenceElementId": "",
          "outlineElementId": "text4615",
          "outlineElementAuto": true,
          "transitionTimingFunction": "linear",
          "transitionRelativeZoom": 0,
          "transitionPathId": ""
        }
      },
      "cameraStates": {
        "layer1": {
          "cx": 79.34729846270585,
          "cy": 250.89996623368017,
          "width": 126.1022005161966,
          "height": 85.85607219781072,
          "opacity": 1,
          "angle": 0,
          "clipped": true,
          "clipXOffset": -9.630354093148005,
          "clipYOffset": -111.51387063810655,
          "clipWidthFactor": 0.7886710239651417,
          "clipHeightFactor": 0.06540697674418605
        },
        "__sozi_auto__": {
          "cx": 67.04575199351731,
          "cy": 235.261716304736,
          "width": 16.114774178649945,
          "height": 12.07730352386837,
          "opacity": 1,
          "angle": 0,
          "clipped": true,
          "clipXOffset": -54.81461487502074,
          "clipYOffset": 169.98413155669033,
          "clipWidthFactor": 0.4564270152505441,
          "clipHeightFactor": 0.10319767441860456
        }
      },
      "cameraOffsets": {
        "layer1": {
          "deltaX": 18.80042346270585,
          "deltaY": -18.748471266319825,
          "widthFactor": 1.6891044020587238,
          "heightFactor": 2.9243153915167035,
          "deltaAngle": 0
        }
      }
    },
    {
      "frameId": "frame3981",
      "title": "Prise en charge",
      "timeoutMs": 0,
      "timeoutEnable": false,
      "transitionDurationMs": 1000,
      "showInFrameList": true,
      "showFrameNumber": true,
      "layerProperties": {
        "layer1": {
          "link": false,
          "referenceElementId": "text4615",
          "outlineElementId": "text4615",
          "outlineElementAuto": true,
          "transitionTimingFunction": "linear",
          "transitionRelativeZoom": 0,
          "transitionPathId": ""
        },
        "__sozi_auto__": {
          "link": false,
          "referenceElementId": "",
          "outlineElementId": "text4615",
          "outlineElementAuto": true,
          "transitionTimingFunction": "linear",
          "transitionRelativeZoom": 0,
          "transitionPathId": ""
        }
      },
      "cameraStates": {
        "layer1": {
          "cx": 89.64578972577404,
          "cy": 262.6017448873571,
          "width": 215.67755668792753,
          "height": 89.92187010911027,
          "opacity": 1,
          "angle": 0,
          "clipped": true,
          "clipXOffset": -61.68051337097928,
          "clipYOffset": 13.6621625856383,
          "clipWidthFactor": 0.5751633986928104,
          "clipHeightFactor": 0.4729067558119391
        },
        "__sozi_auto__": {
          "cx": 64.82048195578076,
          "cy": 246.7011178077542,
          "width": 27.56173252490162,
          "height": 20.656287556789014,
          "opacity": 1,
          "angle": 0,
          "clipped": true,
          "clipXOffset": 0.5708051114624595,
          "clipYOffset": 3.865133561239662,
          "clipWidthFactor": 0.9204793028322441,
          "clipHeightFactor": 0.4738372093023256
        }
      },
      "cameraOffsets": {
        "layer1": {
          "deltaX": 29.098914725774037,
          "deltaY": -7.046692612642914,
          "widthFactor": 2.888941738808573,
          "heightFactor": 3.062799194775443,
          "deltaAngle": 0
        }
      }
    },
    {
      "frameId": "frame3750",
      "title": "Patiente_numero_2",
      "timeoutMs": 0,
      "timeoutEnable": false,
      "transitionDurationMs": 1000,
      "showInFrameList": true,
      "showFrameNumber": true,
      "layerProperties": {
        "layer1": {
          "link": false,
          "referenceElementId": "text4393",
          "outlineElementId": "text4393",
          "outlineElementAuto": true,
          "transitionTimingFunction": "linear",
          "transitionRelativeZoom": 0,
          "transitionPathId": ""
        },
        "__sozi_auto__": {
          "link": false,
          "referenceElementId": "",
          "outlineElementId": "text4393",
          "outlineElementAuto": true,
          "transitionTimingFunction": "linear",
          "transitionRelativeZoom": 0,
          "transitionPathId": ""
        }
      },
      "cameraStates": {
        "layer1": {
          "cx": 236.84013546875434,
          "cy": 46.488641653498014,
          "width": 327.1320729128587,
          "height": 145.7135340528244,
          "opacity": 1,
          "angle": 0,
          "clipped": true,
          "clipXOffset": -27.515781833791852,
          "clipYOffset": -52.58357967993228,
          "clipWidthFactor": 0.46623093681917216,
          "clipHeightFactor": 0.28124084448052383
        },
        "__sozi_auto__": {
          "cx": 106.45882750852273,
          "cy": 188.5321427094451,
          "width": 51.97175729652358,
          "height": 38.95051091504164,
          "opacity": 1,
          "angle": 0,
          "clipped": true,
          "clipXOffset": -3.473360017341922,
          "clipYOffset": -14.458901779068489,
          "clipWidthFactor": 0.44008714596949894,
          "clipHeightFactor": 0.19186046511627908
        }
      },
      "cameraOffsets": {
        "layer1": {
          "deltaX": 17.26201046875434,
          "deltaY": -62.316045846501986,
          "widthFactor": 4.325713360831189,
          "heightFactor": 2.745265286835667,
          "deltaAngle": 0
        }
      }
    },
    {
      "frameId": "frame2842",
      "title": "Constantes",
      "timeoutMs": 0,
      "timeoutEnable": false,
      "transitionDurationMs": 1000,
      "showInFrameList": true,
      "showFrameNumber": true,
      "layerProperties": {
        "layer1": {
          "link": false,
          "referenceElementId": "path3642",
          "outlineElementId": "path3642",
          "outlineElementAuto": true,
          "transitionTimingFunction": "linear",
          "transitionRelativeZoom": 0,
          "transitionPathId": ""
        },
        "__sozi_auto__": {
          "link": false,
          "referenceElementId": "",
          "outlineElementId": "path3642",
          "outlineElementAuto": true,
          "transitionTimingFunction": "linear",
          "transitionRelativeZoom": 0,
          "transitionPathId": ""
        }
      },
      "cameraStates": {
        "layer1": {
          "cx": 215.52850042984252,
          "cy": 47.44589887905684,
          "width": 152.1581025318153,
          "height": 114.03570211534742,
          "opacity": 1,
          "angle": 0,
          "clipped": true,
          "clipXOffset": 7.481807251564399,
          "clipYOffset": -15.3343463071774,
          "clipWidthFactor": 0.9858387799564269,
          "clipHeightFactor": 0.7674418604651163
        },
        "__sozi_auto__": {
          "cx": 105.39692437241138,
          "cy": 189.0517710074619,
          "width": 40.72123175917423,
          "height": 30.518744499250406,
          "opacity": 1,
          "angle": 0,
          "clipped": true,
          "clipXOffset": 2.0023147108102246,
          "clipYOffset": -4.103846324709808,
          "clipWidthFactor": 0.985838779956427,
          "clipHeightFactor": 0.7674418604651163
        }
      },
      "cameraOffsets": {
        "layer1": {
          "deltaX": 15.553906313631586,
          "deltaY": 9.314429152494341,
          "widthFactor": 5.076073086130966,
          "heightFactor": 2.9602344167803034,
          "deltaAngle": 0
        }
      }
    },
    {
      "frameId": "frame8305",
      "title": "Antécédents",
      "timeoutMs": 0,
      "timeoutEnable": false,
      "transitionDurationMs": 1000,
      "showInFrameList": true,
      "showFrameNumber": true,
      "layerProperties": {
        "layer1": {
          "link": false,
          "referenceElementId": "text4393",
          "outlineElementId": "text4393",
          "outlineElementAuto": true,
          "transitionTimingFunction": "linear",
          "transitionRelativeZoom": 0,
          "transitionPathId": ""
        },
        "__sozi_auto__": {
          "link": false,
          "referenceElementId": "",
          "outlineElementId": "text4393",
          "outlineElementAuto": true,
          "transitionTimingFunction": "linear",
          "transitionRelativeZoom": 0,
          "transitionPathId": ""
        }
      },
      "cameraStates": {
        "layer1": {
          "cx": 248.81205786660772,
          "cy": 75.45103466362791,
          "width": 327.1320729128585,
          "height": 145.7135340528243,
          "opacity": 1,
          "angle": 0,
          "clipped": true,
          "clipXOffset": -67.73016157491577,
          "clipYOffset": 82.82008559412662,
          "clipWidthFactor": 0.3867102396514161,
          "clipHeightFactor": 0.28613198960192426
        },
        "__sozi_auto__": {
          "cx": 109.66280691187976,
          "cy": 196.2831878292354,
          "width": 51.97175729652355,
          "height": 38.95051091504162,
          "opacity": 1,
          "angle": 0,
          "clipped": true,
          "clipXOffset": -5.807227959769561,
          "clipYOffset": 22.2433120707725,
          "clipWidthFactor": 0.48257080610021785,
          "clipHeightFactor": 0.2863372093023256
        }
      },
      "cameraOffsets": {
        "layer1": {
          "deltaX": 29.233932866607717,
          "deltaY": -33.35365283637209,
          "widthFactor": 4.325713360831187,
          "heightFactor": 2.7452652868356653,
          "deltaAngle": 0
        }
      }
    },
    {
      "frameId": "frame2424",
      "title": "Courrier MT",
      "timeoutMs": 0,
      "timeoutEnable": false,
      "transitionDurationMs": 1000,
      "showInFrameList": true,
      "showFrameNumber": true,
      "layerProperties": {
        "layer1": {
          "link": false,
          "referenceElementId": "text4393",
          "outlineElementId": "text4393",
          "outlineElementAuto": true,
          "transitionTimingFunction": "linear",
          "transitionRelativeZoom": 0,
          "transitionPathId": ""
        },
        "__sozi_auto__": {
          "link": false,
          "referenceElementId": "",
          "outlineElementId": "text4393",
          "outlineElementAuto": true,
          "transitionTimingFunction": "linear",
          "transitionRelativeZoom": 0,
          "transitionPathId": ""
        }
      },
      "cameraStates": {
        "layer1": {
          "cx": 248.81205786660772,
          "cy": 75.45103466362791,
          "width": 327.1320729128585,
          "height": 145.7135340528243,
          "opacity": 1,
          "angle": 0,
          "clipped": true,
          "clipXOffset": -88.53574450393877,
          "clipYOffset": 414.62123780485456,
          "clipWidthFactor": 0.35620915032679734,
          "clipHeightFactor": 0.1345064908385114
        },
        "__sozi_auto__": {
          "cx": 109.66280691187976,
          "cy": 196.2831878292354,
          "width": 51.97175729652355,
          "height": 38.95051091504162,
          "opacity": 1,
          "angle": 0,
          "clipped": true,
          "clipXOffset": -6.041863432891565,
          "clipYOffset": 111.34765620278202,
          "clipWidthFactor": 0.48257080610021785,
          "clipHeightFactor": 0.13372093023255813
        }
      },
      "cameraOffsets": {
        "layer1": {
          "deltaX": 29.233932866607717,
          "deltaY": -33.35365283637209,
          "widthFactor": 4.325713360831187,
          "heightFactor": 2.7452652868356653,
          "deltaAngle": 0
        }
      }
    },
    {
      "frameId": "frame6510",
      "title": "Dr Doggo",
      "timeoutMs": 0,
      "timeoutEnable": false,
      "transitionDurationMs": 1000,
      "showInFrameList": true,
      "showFrameNumber": true,
      "layerProperties": {
        "layer1": {
          "link": false,
          "referenceElementId": "path3885",
          "outlineElementId": "path3885",
          "outlineElementAuto": true,
          "transitionTimingFunction": "linear",
          "transitionRelativeZoom": 0,
          "transitionPathId": ""
        },
        "__sozi_auto__": {
          "link": false,
          "referenceElementId": "",
          "outlineElementId": "path3885",
          "outlineElementAuto": true,
          "transitionTimingFunction": "linear",
          "transitionRelativeZoom": 0,
          "transitionPathId": ""
        }
      },
      "cameraStates": {
        "layer1": {
          "cx": 225.22649540862338,
          "cy": 156.5146372822514,
          "width": 131.43988988818958,
          "height": 98.5083270621726,
          "opacity": 1,
          "angle": 0,
          "clipped": true,
          "clipXOffset": -49.71856704466301,
          "clipYOffset": 26.291849530579864,
          "clipWidthFactor": 0.37581699346405234,
          "clipHeightFactor": 0.623546511627907
        },
        "__sozi_auto__": {
          "cx": 107.99234515223918,
          "cy": 218.24123446878846,
          "width": 35.17653105208879,
          "height": 26.3632389584282,
          "opacity": 1,
          "angle": 0,
          "clipped": true,
          "clipXOffset": -13.305905224050978,
          "clipYOffset": 7.036342332727341,
          "clipWidthFactor": 0.37581699346405234,
          "clipHeightFactor": 0.6235465116279071
        }
      },
      "cameraOffsets": {
        "layer1": {
          "deltaX": 23.92249455413119,
          "deltaY": -5.966670701147024,
          "widthFactor": 5.034666920612876,
          "heightFactor": 2.6792109307175402,
          "deltaAngle": 0
        }
      }
    },
    {
      "frameId": "frame4933",
      "title": "Info MT",
      "timeoutMs": 0,
      "timeoutEnable": false,
      "transitionDurationMs": 1000,
      "showInFrameList": true,
      "showFrameNumber": true,
      "layerProperties": {
        "layer1": {
          "link": false,
          "referenceElementId": "path3885",
          "outlineElementId": "path3885",
          "outlineElementAuto": true,
          "transitionTimingFunction": "linear",
          "transitionRelativeZoom": 0,
          "transitionPathId": ""
        },
        "__sozi_auto__": {
          "link": false,
          "referenceElementId": "",
          "outlineElementId": "path3885",
          "outlineElementAuto": true,
          "transitionTimingFunction": "linear",
          "transitionRelativeZoom": 0,
          "transitionPathId": ""
        }
      },
      "cameraStates": {
        "layer1": {
          "cx": 225.22649540862338,
          "cy": 156.5146372822514,
          "width": 131.43988988818958,
          "height": 98.5083270621726,
          "opacity": 1,
          "angle": 0,
          "clipped": true,
          "clipXOffset": 5.328644184656334,
          "clipYOffset": 304.5284304341357,
          "clipWidthFactor": 0.7657952069716777,
          "clipHeightFactor": 0.13517441860465115
        },
        "__sozi_auto__": {
          "cx": 107.99234515223918,
          "cy": 218.24123446878846,
          "width": 35.17653105208879,
          "height": 26.3632389584282,
          "opacity": 1,
          "angle": 0,
          "clipped": true,
          "clipXOffset": 1.426075583192789,
          "clipYOffset": 81.49926022094739,
          "clipWidthFactor": 0.7657952069716777,
          "clipHeightFactor": 0.13517441860465118
        }
      },
      "cameraOffsets": {
        "layer1": {
          "deltaX": 23.92249455413119,
          "deltaY": -5.966670701147024,
          "widthFactor": 5.034666920612876,
          "heightFactor": 2.6792109307175402,
          "deltaAngle": 0
        }
      }
    },
    {
      "frameId": "frame4797",
      "title": "Etiologies",
      "timeoutMs": 0,
      "timeoutEnable": false,
      "transitionDurationMs": 1000,
      "showInFrameList": true,
      "showFrameNumber": true,
      "layerProperties": {
        "layer1": {
          "link": false,
          "referenceElementId": "text4393",
          "outlineElementId": "text4393",
          "outlineElementAuto": true,
          "transitionTimingFunction": "linear",
          "transitionRelativeZoom": 0,
          "transitionPathId": ""
        },
        "__sozi_auto__": {
          "link": false,
          "referenceElementId": "",
          "outlineElementId": "text4393",
          "outlineElementAuto": true,
          "transitionTimingFunction": "linear",
          "transitionRelativeZoom": 0,
          "transitionPathId": ""
        }
      },
      "cameraStates": {
        "layer1": {
          "cx": 253.6689379378128,
          "cy": 171.99586143452836,
          "width": 397.63107920103613,
          "height": 177.1157113507962,
          "opacity": 1,
          "angle": 0,
          "clipped": true,
          "clipXOffset": -57.10818332597361,
          "clipYOffset": 489.44215308660534,
          "clipWidthFactor": 0.3714596949891068,
          "clipHeightFactor": 0.0872093023255814
        },
        "__sozi_auto__": {
          "cx": 110.96262687358508,
          "cy": 222.12094606011962,
          "width": 63.17199581740758,
          "height": 47.34458945792638,
          "opacity": 1,
          "angle": 0,
          "clipped": true,
          "clipXOffset": -15.283547375179253,
          "clipYOffset": 130.98669750026298,
          "clipWidthFactor": 0.3714596949891068,
          "clipHeightFactor": 0.08720930232558138
        }
      },
      "cameraOffsets": {
        "layer1": {
          "deltaX": 34.090812937812814,
          "deltaY": 63.191173934528365,
          "widthFactor": 5.2579316257988244,
          "heightFactor": 3.336887114056802,
          "deltaAngle": 0
        }
      }
    },
    {
      "frameId": "frame7627",
      "title": "Bio",
      "timeoutMs": 0,
      "timeoutEnable": false,
      "transitionDurationMs": 1000,
      "showInFrameList": true,
      "showFrameNumber": true,
      "layerProperties": {
        "layer1": {
          "link": false,
          "referenceElementId": "text4442",
          "outlineElementId": "text4442",
          "outlineElementAuto": true,
          "transitionTimingFunction": "linear",
          "transitionRelativeZoom": 0,
          "transitionPathId": ""
        },
        "__sozi_auto__": {
          "link": false,
          "referenceElementId": "",
          "outlineElementId": "text4442",
          "outlineElementAuto": true,
          "transitionTimingFunction": "linear",
          "transitionRelativeZoom": 0,
          "transitionPathId": ""
        }
      },
      "cameraStates": {
        "layer1": {
          "cx": 197.94468577576993,
          "cy": 215.84224243902227,
          "width": 75.64269996215711,
          "height": 94.72334538289705,
          "opacity": 1,
          "angle": 0,
          "clipped": true,
          "clipXOffset": 5.906830882825789,
          "clipYOffset": 70.22592847352713,
          "clipWidthFactor": 0.7808342591258627,
          "clipHeightFactor": 0.25290697674418605
        },
        "__sozi_auto__": {
          "cx": 104.97932926136932,
          "cy": 233.92012590087967,
          "width": 31.90615061413953,
          "height": 23.912234882928104,
          "opacity": 1,
          "angle": 0,
          "clipped": true,
          "clipXOffset": -0.836374821924046,
          "clipYOffset": 18.827449304374426,
          "clipWidthFactor": 0.5610021786492375,
          "clipHeightFactor": 0.25290697674418605
        }
      },
      "cameraOffsets": {
        "layer1": {
          "deltaX": -16.938126724230074,
          "deltaY": 1.8188049390222716,
          "widthFactor": 1.1485487064242124,
          "heightFactor": 7.606391599128496,
          "deltaAngle": 0
        }
      }
    },
    {
      "frameId": "frame1582",
      "title": "hNa",
      "timeoutMs": 0,
      "timeoutEnable": false,
      "transitionDurationMs": 1000,
      "showInFrameList": true,
      "showFrameNumber": true,
      "layerProperties": {
        "layer1": {
          "link": false,
          "referenceElementId": "text4442",
          "outlineElementId": "text4442",
          "outlineElementAuto": true,
          "transitionTimingFunction": "linear",
          "transitionRelativeZoom": 0,
          "transitionPathId": ""
        },
        "__sozi_auto__": {
          "link": false,
          "referenceElementId": "",
          "outlineElementId": "text4442",
          "outlineElementAuto": true,
          "transitionTimingFunction": "linear",
          "transitionRelativeZoom": 0,
          "transitionPathId": ""
        }
      },
      "cameraStates": {
        "layer1": {
          "cx": 198.5940313900067,
          "cy": 226.62137963535238,
          "width": 75.64269996215711,
          "height": 94.72334538289705,
          "opacity": 1,
          "angle": 0,
          "clipped": true,
          "clipXOffset": 18.944383858615105,
          "clipYOffset": 240.98733457707633,
          "clipWidthFactor": 1.0210909542415127,
          "clipHeightFactor": 0.09883720930232558
        },
        "__sozi_auto__": {
          "cx": 105.15311003813478,
          "cy": 236.80488679518626,
          "width": 31.90615061413953,
          "height": 23.912234882928104,
          "opacity": 1,
          "angle": 0,
          "clipped": true,
          "clipXOffset": 3.476066913950266,
          "clipYOffset": 58.77021108550639,
          "clipWidthFactor": 0.7549019607843138,
          "clipHeightFactor": 0.10319767441860464
        }
      },
      "cameraOffsets": {
        "layer1": {
          "deltaX": -16.288781109993295,
          "deltaY": 12.597942135352383,
          "widthFactor": 1.1485487064242124,
          "heightFactor": 7.606391599128496,
          "deltaAngle": 0
        }
      }
    },
    {
      "frameId": "frame1475",
      "title": "etiologie",
      "timeoutMs": 0,
      "timeoutEnable": false,
      "transitionDurationMs": 1000,
      "showInFrameList": true,
      "showFrameNumber": true,
      "layerProperties": {
        "layer1": {
          "link": false,
          "referenceElementId": "text4450",
          "outlineElementId": "text4450",
          "outlineElementAuto": true,
          "transitionTimingFunction": "linear",
          "transitionRelativeZoom": 0,
          "transitionPathId": ""
        },
        "__sozi_auto__": {
          "link": false,
          "referenceElementId": "",
          "outlineElementId": "text4450",
          "outlineElementAuto": true,
          "transitionTimingFunction": "linear",
          "transitionRelativeZoom": 0,
          "transitionPathId": ""
        }
      },
      "cameraStates": {
        "layer1": {
          "cx": 193.755063470044,
          "cy": 245.78994828233584,
          "width": 49.37852140277912,
          "height": 67.47202722882608,
          "opacity": 1,
          "angle": 0,
          "clipped": true,
          "clipXOffset": -6.0230688827455605,
          "clipYOffset": 191.85291284100552,
          "clipWidthFactor": 0.5934891841401946,
          "clipHeightFactor": 0.06395348837209303
        },
        "__sozi_auto__": {
          "cx": 103.24338384869243,
          "cy": 241.81777914057645,
          "width": 22.67510555778869,
          "height": 16.993978892983247,
          "opacity": 1,
          "angle": 0,
          "clipped": true,
          "clipXOffset": -2.549272222473285,
          "clipYOffset": 49.99391465028793,
          "clipWidthFactor": 0.36819172113289766,
          "clipHeightFactor": 0.0625
        }
      },
      "cameraOffsets": {
        "layer1": {
          "deltaX": -8.830874029955993,
          "deltaY": 12.672760782335843,
          "widthFactor": 1.1893960744365313,
          "heightFactor": 3.2688945818659114,
          "deltaAngle": 0
        }
      }
    },
    {
      "frameId": "frame2778",
      "title": "PEC",
      "timeoutMs": 0,
      "timeoutEnable": false,
      "transitionDurationMs": 1000,
      "showInFrameList": true,
      "showFrameNumber": true,
      "layerProperties": {
        "layer1": {
          "link": false,
          "referenceElementId": "text4450",
          "outlineElementId": "text4450",
          "outlineElementAuto": true,
          "transitionTimingFunction": "linear",
          "transitionRelativeZoom": 0,
          "transitionPathId": ""
        },
        "__sozi_auto__": {
          "link": false,
          "referenceElementId": "",
          "outlineElementId": "text4450",
          "outlineElementAuto": true,
          "transitionTimingFunction": "linear",
          "transitionRelativeZoom": 0,
          "transitionPathId": ""
        }
      },
      "cameraStates": {
        "layer1": {
          "cx": 193.755063470044,
          "cy": 245.78994828233584,
          "width": 49.37852140277912,
          "height": 67.47202722882608,
          "opacity": 1,
          "angle": 0,
          "clipped": true,
          "clipXOffset": 3.8352249633226503,
          "clipYOffset": 228.05545203343215,
          "clipWidthFactor": 0.8182659047665748,
          "clipHeightFactor": 0.07267441860465117
        },
        "__sozi_auto__": {
          "cx": 103.24338384869243,
          "cy": 241.81777914057645,
          "width": 22.67510555778869,
          "height": 16.993978892983247,
          "opacity": 1,
          "angle": 0,
          "clipped": true,
          "clipXOffset": -0.7280997197455085,
          "clipYOffset": 58.79916696972204,
          "clipWidthFactor": 0.593681917211329,
          "clipHeightFactor": 0.07267441860465117
        }
      },
      "cameraOffsets": {
        "layer1": {
          "deltaX": -8.830874029955993,
          "deltaY": 12.672760782335843,
          "widthFactor": 1.1893960744365313,
          "heightFactor": 3.2688945818659114,
          "deltaAngle": 0
        }
      }
    },
    {
      "frameId": "frame9159",
      "title": "traitement",
      "timeoutMs": 0,
      "timeoutEnable": false,
      "transitionDurationMs": 1000,
      "showInFrameList": true,
      "showFrameNumber": true,
      "layerProperties": {
        "layer1": {
          "link": false,
          "referenceElementId": "text4480",
          "outlineElementId": "text4480",
          "outlineElementAuto": true,
          "transitionTimingFunction": "linear",
          "transitionRelativeZoom": 0,
          "transitionPathId": ""
        },
        "__sozi_auto__": {
          "link": false,
          "referenceElementId": "",
          "outlineElementId": "text4480",
          "outlineElementAuto": true,
          "transitionTimingFunction": "linear",
          "transitionRelativeZoom": 0,
          "transitionPathId": ""
        }
      },
      "cameraStates": {
        "layer1": {
          "cx": 204.2193897480446,
          "cy": 258.08676996016374,
          "width": 105.15170757490006,
          "height": 78.8065085092933,
          "opacity": 1,
          "angle": 0,
          "clipped": true,
          "clipXOffset": 14.212046712030439,
          "clipYOffset": 62.71222156021227,
          "clipWidthFactor": 0.6568627450980393,
          "clipHeightFactor": 0.309593023255814
        },
        "__sozi_auto__": {
          "cx": 106.81895050976846,
          "cy": 246.0199621162405,
          "width": 35.17653105208893,
          "height": 26.363238958428308,
          "opacity": 1,
          "angle": 0,
          "clipped": true,
          "clipXOffset": 4.754373599909201,
          "clipYOffset": 20.97919719931267,
          "clipWidthFactor": 0.6568627450980392,
          "clipHeightFactor": 0.30959302325581395
        }
      },
      "cameraOffsets": {
        "layer1": {
          "deltaX": -4.077485251955409,
          "deltaY": -19.069480039836264,
          "widthFactor": 1.9863368609190093,
          "heightFactor": 3.3940891955550274,
          "deltaAngle": 0
        }
      }
    },
    {
      "frameId": "frame5702",
      "title": "M.Delatou",
      "timeoutMs": 0,
      "timeoutEnable": false,
      "transitionDurationMs": 1000,
      "showInFrameList": true,
      "showFrameNumber": true,
      "layerProperties": {
        "layer1": {
          "link": false,
          "referenceElementId": "path3764",
          "outlineElementId": "path3764",
          "outlineElementAuto": true,
          "transitionTimingFunction": "linear",
          "transitionRelativeZoom": 0,
          "transitionPathId": ""
        },
        "__sozi_auto__": {
          "link": false,
          "referenceElementId": "",
          "outlineElementId": "path3764",
          "outlineElementAuto": true,
          "transitionTimingFunction": "linear",
          "transitionRelativeZoom": 0,
          "transitionPathId": ""
        }
      },
      "cameraStates": {
        "layer1": {
          "cx": 357.4534297223857,
          "cy": 17.177714790438866,
          "width": 176.14202344339375,
          "height": 132.01057966127985,
          "opacity": 1,
          "angle": 0,
          "clipped": true,
          "clipXOffset": 2.968685788371805,
          "clipYOffset": 43.453482471837944,
          "clipWidthFactor": 0.6786492374727668,
          "clipHeightFactor": 0.3488372093023256
        },
        "__sozi_auto__": {
          "cx": 143.37950855268923,
          "cy": 180.95126424053285,
          "width": 47.1399159152144,
          "height": 35.329261600945,
          "opacity": 1,
          "angle": 0,
          "clipped": true,
          "clipXOffset": 0.794492964863164,
          "clipYOffset": 11.62921527697773,
          "clipWidthFactor": 0.678649237472767,
          "clipHeightFactor": 0.34883720930232553
        }
      },
      "cameraOffsets": {
        "layer1": {
          "deltaX": 23.901336216526317,
          "deltaY": -14.269924674893165,
          "widthFactor": 4.398007338057298,
          "heightFactor": 3.4097704425752853,
          "deltaAngle": 0
        }
      }
    },
    {
      "frameId": "frame9875",
      "title": "ADK",
      "timeoutMs": 0,
      "timeoutEnable": false,
      "transitionDurationMs": 1000,
      "showInFrameList": true,
      "showFrameNumber": true,
      "layerProperties": {
        "layer1": {
          "link": false,
          "referenceElementId": "path3764",
          "outlineElementId": "path3764",
          "outlineElementAuto": true,
          "transitionTimingFunction": "linear",
          "transitionRelativeZoom": 0,
          "transitionPathId": ""
        },
        "__sozi_auto__": {
          "link": false,
          "referenceElementId": "",
          "outlineElementId": "path3764",
          "outlineElementAuto": true,
          "transitionTimingFunction": "linear",
          "transitionRelativeZoom": 0,
          "transitionPathId": ""
        }
      },
      "cameraStates": {
        "layer1": {
          "cx": 361.87556632062206,
          "cy": 47.90722839205293,
          "width": 68.77131111339806,
          "height": 65.16651024108239,
          "opacity": 1,
          "angle": 0,
          "clipped": true,
          "clipXOffset": 5.126588646635128,
          "clipYOffset": 76.45773726305211,
          "clipWidthFactor": 0.7575153046160635,
          "clipHeightFactor": 0.14680232558139536
        },
        "__sozi_auto__": {
          "cx": 145.5456641281658,
          "cy": 189.30904631021727,
          "width": 22.675105557788783,
          "height": 16.993978892983314,
          "opacity": 1,
          "angle": 0,
          "clipped": true,
          "clipXOffset": 0.26703287795117636,
          "clipYOffset": 20.44325183660864,
          "clipWidthFactor": 0.6633986928104575,
          "clipHeightFactor": 0.14680232558139533
        }
      },
      "cameraOffsets": {
        "layer1": {
          "deltaX": 28.32347281476268,
          "deltaY": 16.459588926720897,
          "widthFactor": 1.7171185218145613,
          "heightFactor": 1.683219943704231,
          "deltaAngle": 0
        }
      }
    },
    {
      "frameId": "frame3398",
      "title": "Sillage",
      "timeoutMs": 0,
      "timeoutEnable": false,
      "transitionDurationMs": 1000,
      "showInFrameList": true,
      "showFrameNumber": true,
      "layerProperties": {
        "layer1": {
          "link": false,
          "referenceElementId": "path3758",
          "outlineElementId": "path3758",
          "outlineElementAuto": true,
          "transitionTimingFunction": "linear",
          "transitionRelativeZoom": 0,
          "transitionPathId": ""
        },
        "__sozi_auto__": {
          "link": false,
          "referenceElementId": "",
          "outlineElementId": "path3758",
          "outlineElementAuto": true,
          "transitionTimingFunction": "linear",
          "transitionRelativeZoom": 0,
          "transitionPathId": ""
        }
      },
      "cameraStates": {
        "layer1": {
          "cx": 367.8428607856931,
          "cy": 51.68874374661698,
          "width": 90.99984347196339,
          "height": 68.20031841907496,
          "opacity": 1,
          "angle": 0,
          "clipped": true,
          "clipXOffset": 10.174567675806083,
          "clipYOffset": 115.52298834251474,
          "clipWidthFactor": 0.6154684095860568,
          "clipHeightFactor": 0.14244186046511625
        },
        "__sozi_auto__": {
          "cx": 155.9604229309328,
          "cy": 198.76994705380017,
          "width": 47.1399159152144,
          "height": 35.329261600945,
          "opacity": 1,
          "angle": 0,
          "clipped": true,
          "clipXOffset": 5.270649337533513,
          "clipYOffset": 59.84344311996807,
          "clipWidthFactor": 0.6154684095860568,
          "clipHeightFactor": 0.14244186046511628
        }
      },
      "cameraOffsets": {
        "layer1": {
          "deltaX": 34.29098090288062,
          "deltaY": -19.14186843600021,
          "widthFactor": 1.7937880944418305,
          "heightFactor": 2.128575138391199,
          "deltaAngle": 0
        }
      }
    },
    {
      "frameId": "frame9049",
      "title": "Acharnement",
      "timeoutMs": 0,
      "timeoutEnable": false,
      "transitionDurationMs": 1000,
      "showInFrameList": true,
      "showFrameNumber": true,
      "layerProperties": {
        "layer1": {
          "link": false,
          "referenceElementId": "text5280",
          "outlineElementId": "text5280",
          "outlineElementAuto": true,
          "transitionTimingFunction": "linear",
          "transitionRelativeZoom": 0,
          "transitionPathId": ""
        },
        "__sozi_auto__": {
          "link": false,
          "referenceElementId": "",
          "outlineElementId": "text5280",
          "outlineElementAuto": true,
          "transitionTimingFunction": "linear",
          "transitionRelativeZoom": 0,
          "transitionPathId": ""
        }
      },
      "cameraStates": {
        "layer1": {
          "cx": 375.41850952948926,
          "cy": 59.723496878925154,
          "width": 85.10930396980186,
          "height": 62.26663904914188,
          "opacity": 1,
          "angle": 0,
          "clipped": true,
          "clipXOffset": 2.7237691539119937,
          "clipYOffset": 122.56637570820749,
          "clipWidthFactor": 0.611111111111111,
          "clipHeightFactor": 0.1366279069767442
        },
        "__sozi_auto__": {
          "cx": 154.22288241984091,
          "cy": 198.96880444783105,
          "width": 36.93535760469347,
          "height": 27.681400906349793,
          "opacity": 1,
          "angle": 0,
          "clipped": true,
          "clipXOffset": 1.3939229488179494,
          "clipYOffset": 62.72487652183517,
          "clipWidthFactor": 0.6111111111111112,
          "clipHeightFactor": 0.13662790697674418
        }
      },
      "cameraOffsets": {
        "layer1": {
          "deltaX": -4.831490470510744,
          "deltaY": 13.325059378925154,
          "widthFactor": 1.3603884750417878,
          "heightFactor": 5.903799850585304,
          "deltaAngle": 0
        }
      }
    },
    {
      "frameId": "frame1294",
      "title": "Constantes",
      "timeoutMs": 0,
      "timeoutEnable": false,
      "transitionDurationMs": 1000,
      "showInFrameList": true,
      "showFrameNumber": true,
      "layerProperties": {
        "layer1": {
          "link": false,
          "referenceElementId": "path3758",
          "outlineElementId": "path3758",
          "outlineElementAuto": true,
          "transitionTimingFunction": "linear",
          "transitionRelativeZoom": 0,
          "transitionPathId": ""
        },
        "__sozi_auto__": {
          "link": false,
          "referenceElementId": "",
          "outlineElementId": "path3758",
          "outlineElementAuto": true,
          "transitionTimingFunction": "linear",
          "transitionRelativeZoom": 0,
          "transitionPathId": ""
        }
      },
      "cameraStates": {
        "layer1": {
          "cx": 329.6263215980547,
          "cy": 100.02207391384795,
          "width": 123.44006083293654,
          "height": 92.51281247610058,
          "opacity": 1,
          "angle": 0,
          "clipped": true,
          "clipXOffset": -32.03781804276971,
          "clipYOffset": 10.225100326305853,
          "clipWidthFactor": 0.2657952069716775,
          "clipHeightFactor": 0.2761627906976744
        },
        "__sozi_auto__": {
          "cx": 132.54734085903843,
          "cy": 219.61609439571146,
          "width": 63.17199581740813,
          "height": 47.344589457926794,
          "opacity": 1,
          "angle": 0,
          "clipped": true,
          "clipXOffset": -16.39575429354221,
          "clipYOffset": 5.232823045349804,
          "clipWidthFactor": 0.2657952069716776,
          "clipHeightFactor": 0.2761627906976744
        }
      },
      "cameraOffsets": {
        "layer1": {
          "deltaX": -3.9255582847578125,
          "deltaY": 29.19146173123076,
          "widthFactor": 2.4332493667147563,
          "heightFactor": 2.887383478318162,
          "deltaAngle": 0
        }
      }
    },
    {
      "frameId": "frame7409",
      "title": "Clinique SIADH",
      "timeoutMs": 0,
      "timeoutEnable": false,
      "transitionDurationMs": 1000,
      "showInFrameList": true,
      "showFrameNumber": true,
      "layerProperties": {
        "layer1": {
          "link": false,
          "referenceElementId": "text5326",
          "outlineElementId": "text5326",
          "outlineElementAuto": true,
          "transitionTimingFunction": "linear",
          "transitionRelativeZoom": 0,
          "transitionPathId": ""
        },
        "__sozi_auto__": {
          "link": false,
          "referenceElementId": "",
          "outlineElementId": "text5326",
          "outlineElementAuto": true,
          "transitionTimingFunction": "linear",
          "transitionRelativeZoom": 0,
          "transitionPathId": ""
        }
      },
      "cameraStates": {
        "layer1": {
          "cx": 385.3019774247916,
          "cy": 106.41443475473687,
          "width": 153.0540414387467,
          "height": 97.46420081843412,
          "opacity": 1,
          "angle": 0,
          "clipped": true,
          "clipXOffset": -6.6377758775689815,
          "clipYOffset": 4.956043525505392,
          "clipWidthFactor": 0.6143790849673203,
          "clipHeightFactor": 0.4069767441860465
        },
        "__sozi_auto__": {
          "cx": 158.37729010538501,
          "cy": 222.92744649420422,
          "width": 63.1719958174082,
          "height": 47.344589457926844,
          "opacity": 1,
          "angle": 0,
          "clipped": true,
          "clipXOffset": -3.396964868173463,
          "clipYOffset": 2.536317292388938,
          "clipWidthFactor": 0.6143790849673202,
          "clipHeightFactor": 0.4069767441860465
        }
      },
      "cameraOffsets": {
        "layer1": {
          "deltaX": 14.012914924791573,
          "deltaY": -2.312127745263126,
          "widthFactor": 2.488051473731214,
          "heightFactor": 2.8391938335820592,
          "deltaAngle": 0
        }
      }
    },
    {
      "frameId": "frame4863",
      "title": "Etiologie",
      "timeoutMs": 0,
      "timeoutEnable": false,
      "transitionDurationMs": 1000,
      "showInFrameList": true,
      "showFrameNumber": true,
      "layerProperties": {
        "layer1": {
          "link": false,
          "referenceElementId": "text5326",
          "outlineElementId": "text5326",
          "outlineElementAuto": true,
          "transitionTimingFunction": "linear",
          "transitionRelativeZoom": 0,
          "transitionPathId": ""
        },
        "__sozi_auto__": {
          "link": false,
          "referenceElementId": "",
          "outlineElementId": "text5326",
          "outlineElementAuto": true,
          "transitionTimingFunction": "linear",
          "transitionRelativeZoom": 0,
          "transitionPathId": ""
        }
      },
      "cameraStates": {
        "layer1": {
          "cx": 357.02454546433444,
          "cy": 126.23266305615084,
          "width": 160.7067435106844,
          "height": 102.33741085935608,
          "opacity": 1,
          "angle": 0,
          "clipped": true,
          "clipXOffset": 9.012759408497546,
          "clipYOffset": 58.481313600963766,
          "clipWidthFactor": 0.8224400871459696,
          "clipHeightFactor": 0.14244186046511628
        },
        "__sozi_auto__": {
          "cx": 143.90596044563492,
          "cy": 233.06967282589517,
          "width": 66.33059560827876,
          "height": 49.7118189308233,
          "opacity": 1,
          "angle": 0,
          "clipped": true,
          "clipXOffset": 4.612392409847199,
          "clipYOffset": 29.928544050189537,
          "clipWidthFactor": 0.8224400871459695,
          "clipHeightFactor": 0.14244186046511628
        }
      },
      "cameraOffsets": {
        "layer1": {
          "deltaX": -14.264517035665563,
          "deltaY": 17.50610055615084,
          "widthFactor": 2.6124540474177804,
          "heightFactor": 2.9811535252611696,
          "deltaAngle": 0
        }
      }
    },
    {
      "frameId": "frame6414",
      "title": "Bio",
      "timeoutMs": 0,
      "timeoutEnable": false,
      "transitionDurationMs": 1000,
      "showInFrameList": true,
      "showFrameNumber": true,
      "layerProperties": {
        "layer1": {
          "link": false,
          "referenceElementId": "text5354",
          "outlineElementId": "text5354",
          "outlineElementAuto": true,
          "transitionTimingFunction": "linear",
          "transitionRelativeZoom": 0,
          "transitionPathId": ""
        },
        "__sozi_auto__": {
          "link": false,
          "referenceElementId": "",
          "outlineElementId": "text5354",
          "outlineElementAuto": true,
          "transitionTimingFunction": "linear",
          "transitionRelativeZoom": 0,
          "transitionPathId": ""
        }
      },
      "cameraStates": {
        "layer1": {
          "cx": 343.2929014557602,
          "cy": 145.73076068476624,
          "width": 106.97776453439022,
          "height": 98.27789735329218,
          "opacity": 1,
          "angle": 0,
          "clipped": true,
          "clipXOffset": -8.88048684593661,
          "clipYOffset": 36.15946822441432,
          "clipWidthFactor": 0.6252723311546842,
          "clipHeightFactor": 0.3299418604651163
        },
        "__sozi_auto__": {
          "cx": 143.25566048869106,
          "cy": 242.8241721800539,
          "width": 66.33059560827876,
          "height": 49.7118189308233,
          "opacity": 1,
          "angle": 0,
          "clipped": true,
          "clipXOffset": -4.54470027074362,
          "clipYOffset": 18.505060350901186,
          "clipWidthFactor": 0.6252723311546841,
          "clipHeightFactor": 0.3299418604651163
        }
      },
      "cameraOffsets": {
        "layer1": {
          "deltaX": 6.480401455760216,
          "deltaY": -11.433301815233762,
          "widthFactor": 1.8554409024934888,
          "heightFactor": 3.350977853282205,
          "deltaAngle": 0
        }
      }
    },
    {
      "frameId": "frame6846",
      "title": "hNa SIADH",
      "timeoutMs": 0,
      "timeoutEnable": false,
      "transitionDurationMs": 1000,
      "showInFrameList": true,
      "showFrameNumber": true,
      "layerProperties": {
        "layer1": {
          "link": false,
          "referenceElementId": "text5354",
          "outlineElementId": "text5354",
          "outlineElementAuto": true,
          "transitionTimingFunction": "linear",
          "transitionRelativeZoom": 0,
          "transitionPathId": ""
        },
        "__sozi_auto__": {
          "link": false,
          "referenceElementId": "",
          "outlineElementId": "text5354",
          "outlineElementAuto": true,
          "transitionTimingFunction": "linear",
          "transitionRelativeZoom": 0,
          "transitionPathId": ""
        }
      },
      "cameraStates": {
        "layer1": {
          "cx": 344.98717680052613,
          "cy": 158.43782577050968,
          "width": 106.97776453439022,
          "height": 98.27789735329218,
          "opacity": 1,
          "angle": 0,
          "clipped": true,
          "clipXOffset": 12.640024051613828,
          "clipYOffset": 162.87629055742244,
          "clipWidthFactor": 0.9266876389779463,
          "clipHeightFactor": 0.12936046511627908
        },
        "__sozi_auto__": {
          "cx": 144.12272709794968,
          "cy": 249.32717174949303,
          "width": 66.33059560827876,
          "height": 49.7118189308233,
          "opacity": 1,
          "angle": 0,
          "clipped": true,
          "clipXOffset": 5.727711598486467,
          "clipYOffset": 83.50468460851779,
          "clipWidthFactor": 0.7821350762527234,
          "clipHeightFactor": 0.12936046511627905
        }
      },
      "cameraOffsets": {
        "layer1": {
          "deltaX": 8.174676800526129,
          "deltaY": 1.2737632705096757,
          "widthFactor": 1.8554409024934888,
          "heightFactor": 3.350977853282205,
          "deltaAngle": 0
        }
      }
    },
    {
      "frameId": "frame5449",
      "title": "PEC SIADH",
      "timeoutMs": 0,
      "timeoutEnable": false,
      "transitionDurationMs": 1000,
      "showInFrameList": true,
      "showFrameNumber": true,
      "layerProperties": {
        "layer1": {
          "link": false,
          "referenceElementId": "text5354",
          "outlineElementId": "text5354",
          "outlineElementAuto": true,
          "transitionTimingFunction": "linear",
          "transitionRelativeZoom": 0,
          "transitionPathId": ""
        },
        "__sozi_auto__": {
          "link": false,
          "referenceElementId": "",
          "outlineElementId": "text5354",
          "outlineElementAuto": true,
          "transitionTimingFunction": "linear",
          "transitionRelativeZoom": 0,
          "transitionPathId": ""
        }
      },
      "cameraStates": {
        "layer1": {
          "cx": 340.7514884386113,
          "cy": 169.87418434767886,
          "width": 106.97776453439022,
          "height": 98.27789735329218,
          "opacity": 1,
          "angle": 0,
          "clipped": true,
          "clipXOffset": 5.971287495577029,
          "clipYOffset": 163.1707723419768,
          "clipWidthFactor": 0.803921568627451,
          "clipHeightFactor": 0.12936046511627908
        },
        "__sozi_auto__": {
          "cx": 141.95506057480313,
          "cy": 255.17987136198823,
          "width": 66.33059560827876,
          "height": 49.7118189308233,
          "opacity": 1,
          "angle": 0,
          "clipped": true,
          "clipXOffset": 3.055881098484387,
          "clipYOffset": 83.50468460851779,
          "clipWidthFactor": 0.803921568627451,
          "clipHeightFactor": 0.12936046511627905
        }
      },
      "cameraOffsets": {
        "layer1": {
          "deltaX": 3.938988438611318,
          "deltaY": 12.710121847678863,
          "widthFactor": 1.8554409024934888,
          "heightFactor": 3.350977853282205,
          "deltaAngle": 0
        }
      }
    },
    {
      "frameId": "frame2255",
      "title": "Traitement SIADH",
      "timeoutMs": 0,
      "timeoutEnable": false,
      "transitionDurationMs": 1000,
      "showInFrameList": true,
      "showFrameNumber": true,
      "layerProperties": {
        "layer1": {
          "link": false,
          "referenceElementId": "text5380",
          "outlineElementId": "text5380",
          "outlineElementAuto": true,
          "transitionTimingFunction": "linear",
          "transitionRelativeZoom": 0,
          "transitionPathId": ""
        },
        "__sozi_auto__": {
          "link": false,
          "referenceElementId": "",
          "outlineElementId": "text5380",
          "outlineElementAuto": true,
          "transitionTimingFunction": "linear",
          "transitionRelativeZoom": 0,
          "transitionPathId": ""
        }
      },
      "cameraStates": {
        "layer1": {
          "cx": 345.44712151465376,
          "cy": 206.32458298110927,
          "width": 116.4005086286779,
          "height": 112.92561284004859,
          "opacity": 1,
          "angle": 0,
          "clipped": true,
          "clipXOffset": 9.443087620538439,
          "clipYOffset": 43.807349808639536,
          "clipWidthFactor": 0.8516988845954797,
          "clipHeightFactor": 0.5058139534883721
        },
        "__sozi_auto__": {
          "cx": 147.17280338608782,
          "cy": 273.8018338332025,
          "width": 76.78595574103372,
          "height": 57.547644389794335,
          "opacity": 1,
          "angle": 0,
          "clipped": true,
          "clipXOffset": 1.3199379536948994,
          "clipYOffset": 22.48988401440238,
          "clipWidthFactor": 0.7287581699346406,
          "clipHeightFactor": 0.5058139534883721
        }
      },
      "cameraOffsets": {
        "layer1": {
          "deltaX": -7.818503485346241,
          "deltaY": -20.362917018890727,
          "widthFactor": 1.2808859271381337,
          "heightFactor": 2.186097768228406,
          "deltaAngle": 0
        }
      }
    }
  ],
  "elementsToHide": [],
  "selectedFrames": [
    "frame2255"
  ],
  "selectedLayers": [
    "layer1",
    "__sozi_auto__"
  ],
  "editableLayers": []
}